<?xml version="1.0" encoding="utf-8"?>
<!-- Generator: Adobe Illustrator 17.0.0, SVG Export Plug-In . SVG Version: 6.00 Build 0)  -->
<!DOCTYPE svg PUBLIC "-//W3C//DTD SVG 1.1//EN" "http://www.w3.org/Graphics/SVG/1.1/DTD/svg11.dtd">
<svg version="1.1" id="Layer_1" xmlns="http://www.w3.org/2000/svg" xmlns:xlink="http://www.w3.org/1999/xlink" x="0px" y="0px"
	 width="347.387px" height="364.688px" viewBox="0 0 347.387 364.688" enable-background="new 0 0 347.387 364.688"
	 xml:space="preserve">
<g id="B__x2013__Soda">
	<g>
		<g>
			<g>
				<g>
					<path stroke="#000000" stroke-width="5" stroke-miterlimit="10" d="M29.975,28.359c-2.63,0-5.21-1.067-7.07-2.93
						c-1.858-1.861-2.93-4.44-2.93-7.07c0-2.64,1.069-5.21,2.93-7.067c1.86-1.86,4.44-2.933,7.07-2.933s5.21,1.07,7.069,2.933
						c1.858,1.857,2.931,4.43,2.931,7.067c0,2.63-1.07,5.21-2.931,7.07C35.185,27.289,32.604,28.359,29.975,28.359z"/>
				</g>
				<g>
					<path stroke="#000000" stroke-width="5" stroke-miterlimit="10" d="M263.774,127.729c-4.83-2.688-6.561-8.78-3.87-13.607l0,0
						c2.69-4.82,8.78-6.562,13.603-3.87l0,0c4.829,2.688,6.561,8.777,3.869,13.6l0,0c-1.83,3.29-5.229,5.14-8.75,5.14l0,0
						C266.984,128.989,265.314,128.579,263.774,127.729z M266.385,86.069L266.385,86.069c-0.32-5.51,3.89-10.237,9.398-10.56l0,0
						c5.521-0.33,10.25,3.88,10.568,9.4l0,0c0.319,5.51-3.891,10.237-9.398,10.56l0,0c-0.199,0.01-0.398,0.02-0.592,0.02l0,0
						C271.104,95.489,266.694,91.379,266.385,86.069z M256.465,59.369c-3.341-4.4-2.479-10.673,1.921-14.013l0,0
						c4.398-3.34,10.67-2.479,14.01,1.92l0,0l0,0l0,0c3.34,4.4,2.479,10.67-1.92,14.013l0,0c-1.812,1.37-3.932,2.04-6.04,2.04l0,0
						C261.414,63.329,258.425,61.959,256.465,59.369z M233.024,40.539L233.024,40.539c-4.92-2.5-6.891-8.521-4.391-13.44l0,0
						c2.5-4.93,8.521-6.89,13.438-4.39l0,0c4.933,2.5,6.893,8.52,4.393,13.438l0,0c-1.761,3.473-5.279,5.48-8.921,5.473l0,0
						C236.015,41.619,234.475,41.279,233.024,40.539z M202.744,30.729c-5.432-0.979-9.04-6.18-8.062-11.607l0,0
						c0.979-5.44,6.18-9.053,11.608-8.07l0,0c5.438,0.979,9.052,6.18,8.068,11.62l0,0c-0.868,4.83-5.08,8.22-9.83,8.22l0,0
						C203.944,30.889,203.345,30.839,202.744,30.729z M159.804,18.329c0-5.53,4.479-10,10.01-10l0,0c5.521,0,10,4.47,10,10l0,0
						c0,5.52-4.479,10-10,10l0,0C164.285,28.329,159.804,23.849,159.804,18.329z M124.874,18.329c0-5.53,4.479-10,10-10l0,0
						c5.528,0,10.01,4.47,10.01,10l0,0c0,5.52-4.479,10-10.01,10l0,0C129.354,28.329,124.874,23.849,124.874,18.329z M89.955,18.329
						c0-5.53,4.479-10,10-10l0,0c5.521,0,10,4.47,10,10l0,0c0,5.52-4.479,10-10,10l0,0C94.435,28.329,89.955,23.849,89.955,18.329z
						 M54.984,18.329c0-5.53,4.472-10,10-10l0,0c5.521,0,10,4.47,10,10l0,0c0,5.52-4.479,9.987-10,9.987v0.013
						C59.455,28.329,54.984,23.849,54.984,18.329z"/>
				</g>
				<g>
					<path stroke="#000000" stroke-width="5" stroke-miterlimit="10" d="M246.255,153.049c-2.631,0-5.211-1.07-7.069-2.93
						c-1.858-1.86-2.931-4.44-2.931-7.07s1.069-5.21,2.931-7.07c1.858-1.857,4.438-2.93,7.069-2.93s5.21,1.07,7.069,2.93
						c1.868,1.86,2.931,4.44,2.931,7.07s-1.062,5.21-2.931,7.07C251.465,151.979,248.885,153.049,246.255,153.049z"/>
				</g>
			</g>
		</g>
		<g>
			<g>
				<g>
					<path stroke="#000000" stroke-width="5" stroke-miterlimit="10" d="M29.975,356.359c-2.63,0-5.21-1.067-7.07-2.93
						c-1.858-1.861-2.93-4.44-2.93-7.07s1.069-5.21,2.93-7.08c1.86-1.856,4.44-2.92,7.07-2.92s5.21,1.062,7.069,2.92
						c1.858,1.87,2.931,4.45,2.931,7.08s-1.07,5.21-2.931,7.07C35.185,355.288,32.604,356.359,29.975,356.359z"/>
				</g>
				<g>
					<path stroke="#000000" stroke-width="5" stroke-miterlimit="10" d="M156.515,346.328c0-5.529,4.479-10,10-10l0,0
						c5.521,0,10,4.471,10,10l0,0c0,5.521-4.479,10-10,10l0,0C160.995,356.328,156.515,351.849,156.515,346.328z M122.354,346.328
						c0-5.529,4.479-10,10-10l0,0c5.521,0,10,4.471,10,10l0,0c0,5.521-4.479,10-10,10l0,0
						C126.834,356.328,122.354,351.849,122.354,346.328z M88.185,346.328c0-5.529,4.479-10,10.01-10l0,0c5.521,0,9.99,4.471,9.99,10
						l0,0c0,5.521-4.471,10-9.99,10l0,0C92.665,356.328,88.185,351.849,88.185,346.328z M53.984,346.328c0-5.529,4.472-10,10-10l0,0
						l0,0l0,0c5.521,0,9.99,4.471,9.99,10l0,0c0,5.521-4.471,9.987-9.99,9.987v0.013C58.455,356.328,53.984,351.849,53.984,346.328z
						 M190.664,346.498c-0.142-5.521,4.222-10.109,9.738-10.25l0,0l0,0l0,0c5.521-0.149,10.11,4.211,10.262,9.737l0,0
						c0.142,5.521-4.222,10.11-9.739,10.25l0,0c-0.091,0-0.181,0.013-0.261,0.013l0,0
						C195.255,356.239,190.805,351.939,190.664,346.498z M257.845,336.279c-2.41-4.97-0.341-10.947,4.63-13.367l0,0l0,0l0,0
						c4.97-2.41,10.949-0.33,13.358,4.641l0,0c2.41,4.97,0.341,10.949-4.63,13.359l0,0c-1.41,0.681-2.892,1-4.358,1l0,0
						C263.135,341.909,259.564,339.839,257.845,336.279z M308.992,292.919c-5.198-1.87-7.88-7.61-6.01-12.801l0,0l0,0l0,0
						c1.88-5.189,7.61-7.883,12.812-6l0,0c5.188,1.867,7.881,7.601,6,12.801l0,0c-1.473,4.066-5.312,6.6-9.409,6.6l0,0
						C311.265,293.519,310.114,293.328,308.992,292.919z M307.412,250.359c-0.196-5.52,4.11-10.16,9.633-10.357l0,0
						c5.521-0.199,10.157,4.107,10.357,9.631l0,0c0.2,5.52-4.107,10.159-9.63,10.356l0,0c-0.12,0-0.24,0.013-0.37,0.013l0,0
						C312.055,259.998,307.614,255.759,307.412,250.359z M300.794,220.959c-2.238-5.051,0.052-10.961,5.102-13.19l0,0
						c5.06-2.229,10.96,0.062,13.189,5.11l0,0c2.229,5.05-0.053,10.949-5.109,13.188l0,0c-1.312,0.58-2.681,0.854-4.03,0.854l0,0
						C306.104,226.919,302.444,224.698,300.794,220.959z M283.494,196.559L283.494,196.559L283.494,196.559
						c-4.021-3.79-4.21-10.12-0.432-14.14l0,0c3.79-4.021,10.12-4.211,14.142-0.42l0,0c4.021,3.776,4.21,10.106,0.42,14.13l0,0
						c-1.96,2.09-4.619,3.146-7.278,3.146l0,0C287.885,199.279,285.425,198.379,283.494,196.559z M257.944,180.24
						c-5.1-2.108-7.528-7.961-5.408-13.061l0,0c2.108-5.11,7.96-7.53,13.062-5.42l0,0c5.1,2.12,7.528,7.97,5.409,13.07l0,0
						c-1.591,3.85-5.312,6.17-9.239,6.17l0,0C260.494,180.999,259.194,180.759,257.944,180.24z M227.784,172.909
						c-5.5-0.53-9.521-5.423-8.99-10.923l0,0c0.528-5.5,5.421-9.52,10.921-8.979l0,0c5.5,0.53,9.521,5.42,8.989,10.92l0,0
						c-0.512,5.16-4.858,9.03-9.949,9.03l0,0C228.435,172.959,228.114,172.939,227.784,172.909z M184.654,162.329
						c0-5.53,4.472-10,10-10l0,0c5.521,0,10,4.47,10,10l0,0c0,5.52-4.479,10-10,10l0,0
						C189.124,172.329,184.654,167.849,184.654,162.329z M150.524,162.329c0-5.53,4.479-10,10-10l0,0c5.521,0,10,4.47,10,10l0,0
						c0,5.52-4.479,10-10,10l0,0C155.004,172.329,150.524,167.849,150.524,162.329z M116.404,162.329c0-5.53,4.472-10,10-10l0,0
						c5.521,0,10,4.47,10,10l0,0c0,5.52-4.479,10-10,10l0,0C120.874,172.329,116.404,167.849,116.404,162.329z"/>
				</g>
				<g>
					<path stroke="#000000" stroke-width="5" stroke-miterlimit="10" d="M92.475,171.859c-2.63,0-5.21-1.067-7.07-2.93
						c-1.858-1.861-2.93-4.44-2.93-7.07c0-2.64,1.069-5.21,2.93-7.067c1.86-1.87,4.44-2.933,7.07-2.933s5.21,1.062,7.069,2.933
						c1.858,1.857,2.931,4.43,2.931,7.067c0,2.63-1.07,5.21-2.931,7.07C97.685,170.789,95.104,171.859,92.475,171.859z"/>
				</g>
			</g>
		</g>
		<g>
			<g>
				<g>
					<path stroke="#000000" stroke-width="5" stroke-miterlimit="10" d="M70.975,54.349c-2.63,0-5.21-1.06-7.07-2.92
						c-1.858-1.87-2.93-4.44-2.93-7.07c0-2.64,1.069-5.21,2.93-7.08c1.86-1.857,4.44-2.92,7.07-2.92s5.21,1.062,7.069,2.92
						c1.858,1.86,2.931,4.44,2.931,7.08c0,2.63-1.07,5.21-2.931,7.07C76.185,53.289,73.604,54.349,70.975,54.349z"/>
				</g>
				<g>
					<path stroke="#000000" stroke-width="5" stroke-miterlimit="10" d="M60.984,289.328c0-5.529,4.472-10,10-10l0,0
						c5.521,0,10,4.471,10,10l0,0c0,5.521-4.479,9.987-10,9.987l0,0C65.455,299.319,60.984,294.849,60.984,289.328z M60.984,254.328
						c0-5.529,4.472-10,10-10l0,0c5.521,0,10,4.471,10,10l0,0c0,5.521-4.479,10-10,10l0,0
						C65.455,264.328,60.984,259.849,60.984,254.328z M60.984,219.328c0-5.529,4.472-10,10-10l0,0c5.521,0,10,4.471,10,10l0,0
						c0,5.521-4.479,10-10,10l0,0C65.455,229.328,60.984,224.849,60.984,219.328z M60.984,184.328c0-5.53,4.472-10,10-10l0,0
						c5.521,0,10,4.469,10,10l0,0c0,5.521-4.479,10-10,10l0,0C65.455,194.328,60.984,189.849,60.984,184.328z M60.984,149.329
						c0-5.53,4.472-10,10-10l0,0c5.521,0,10,4.47,10,10l0,0c0,5.52-4.479,10-10,10l0,0
						C65.455,159.329,60.984,154.849,60.984,149.329z M60.984,114.329c0-5.53,4.472-10,10-10l0,0c5.521,0,10,4.47,10,10l0,0
						c0,5.52-4.479,10-10,10l0,0C65.455,124.329,60.984,119.849,60.984,114.329z M60.984,79.329c0-5.53,4.472-10,10-10l0,0
						c5.521,0,10,4.47,10,10l0,0c0,5.52-4.479,10-10,10l0,0C65.455,89.329,60.984,84.849,60.984,79.329z"/>
				</g>
				<g>
					<path stroke="#000000" stroke-width="5" stroke-miterlimit="10" d="M70.975,330.359c-2.63,0-5.21-1.067-7.07-2.93
						c-1.858-1.87-2.93-4.44-2.93-7.07c0-2.64,1.069-5.21,2.93-7.08c1.86-1.856,4.44-2.92,7.07-2.92s5.21,1.062,7.069,2.92
						c1.858,1.87,2.931,4.45,2.931,7.08s-1.07,5.2-2.931,7.07C76.185,329.288,73.604,330.359,70.975,330.359z"/>
				</g>
			</g>
		</g>
		<g>
			<g>
				<g>
					<path stroke="#000000" stroke-width="5" stroke-miterlimit="10" d="M29.975,28.359c-2.63,0-5.21-1.067-7.07-2.93
						c-1.858-1.861-2.93-4.44-2.93-7.07c0-2.64,1.069-5.21,2.93-7.067c1.86-1.86,4.44-2.933,7.07-2.933s5.21,1.07,7.069,2.933
						c1.858,1.857,2.931,4.43,2.931,7.067c0,2.63-1.07,5.21-2.931,7.07C35.185,27.289,32.604,28.359,29.975,28.359z"/>
				</g>
				<g>
					<path stroke="#000000" stroke-width="5" stroke-miterlimit="10" d="M263.774,127.729c-4.83-2.688-6.561-8.78-3.87-13.607l0,0
						c2.69-4.82,8.78-6.562,13.603-3.87l0,0c4.829,2.688,6.561,8.777,3.869,13.6l0,0c-1.83,3.29-5.229,5.14-8.75,5.14l0,0
						C266.984,128.989,265.314,128.579,263.774,127.729z M266.385,86.069L266.385,86.069c-0.32-5.51,3.89-10.237,9.398-10.56l0,0
						c5.521-0.33,10.25,3.88,10.568,9.4l0,0c0.319,5.51-3.891,10.237-9.398,10.56l0,0c-0.199,0.01-0.398,0.02-0.592,0.02l0,0
						C271.104,95.489,266.694,91.379,266.385,86.069z M256.465,59.369c-3.341-4.4-2.479-10.673,1.921-14.013l0,0
						c4.398-3.34,10.67-2.479,14.01,1.92l0,0l0,0l0,0c3.34,4.4,2.479,10.67-1.92,14.013l0,0c-1.812,1.37-3.932,2.04-6.04,2.04l0,0
						C261.414,63.329,258.425,61.959,256.465,59.369z M233.024,40.539L233.024,40.539c-4.92-2.5-6.891-8.521-4.391-13.44l0,0
						c2.5-4.93,8.521-6.89,13.438-4.39l0,0c4.933,2.5,6.893,8.52,4.393,13.438l0,0c-1.761,3.473-5.279,5.48-8.921,5.473l0,0
						C236.015,41.619,234.475,41.279,233.024,40.539z M202.744,30.729c-5.432-0.979-9.04-6.18-8.062-11.607l0,0
						c0.979-5.44,6.18-9.053,11.608-8.07l0,0c5.438,0.979,9.052,6.18,8.068,11.62l0,0c-0.868,4.83-5.08,8.22-9.83,8.22l0,0
						C203.944,30.889,203.345,30.839,202.744,30.729z M159.804,18.329c0-5.53,4.479-10,10.01-10l0,0c5.521,0,10,4.47,10,10l0,0
						c0,5.52-4.479,10-10,10l0,0C164.285,28.329,159.804,23.849,159.804,18.329z M124.874,18.329c0-5.53,4.479-10,10-10l0,0
						c5.528,0,10.01,4.47,10.01,10l0,0c0,5.52-4.479,10-10.01,10l0,0C129.354,28.329,124.874,23.849,124.874,18.329z M89.955,18.329
						c0-5.53,4.479-10,10-10l0,0c5.521,0,10,4.47,10,10l0,0c0,5.52-4.479,10-10,10l0,0C94.435,28.329,89.955,23.849,89.955,18.329z
						 M54.984,18.329c0-5.53,4.472-10,10-10l0,0c5.521,0,10,4.47,10,10l0,0c0,5.52-4.479,9.987-10,9.987v0.013
						C59.455,28.329,54.984,23.849,54.984,18.329z"/>
				</g>
				<g>
					<path stroke="#000000" stroke-width="5" stroke-miterlimit="10" d="M246.255,153.049c-2.631,0-5.211-1.07-7.069-2.93
						c-1.858-1.86-2.931-4.44-2.931-7.07s1.069-5.21,2.931-7.07c1.858-1.857,4.438-2.93,7.069-2.93s5.21,1.07,7.069,2.93
						c1.868,1.86,2.931,4.44,2.931,7.07s-1.062,5.21-2.931,7.07C251.465,151.979,248.885,153.049,246.255,153.049z"/>
				</g>
			</g>
		</g>
		<g>
			<g>
				<g>
					<path stroke="#000000" stroke-width="5" stroke-miterlimit="10" d="M29.975,356.359c-2.63,0-5.21-1.067-7.07-2.93
						c-1.858-1.861-2.93-4.44-2.93-7.07s1.069-5.21,2.93-7.08c1.86-1.856,4.44-2.92,7.07-2.92s5.21,1.062,7.069,2.92
						c1.858,1.87,2.931,4.45,2.931,7.08s-1.07,5.21-2.931,7.07C35.185,355.288,32.604,356.359,29.975,356.359z"/>
				</g>
				<g>
					<path stroke="#000000" stroke-width="5" stroke-miterlimit="10" d="M156.515,346.328c0-5.529,4.479-10,10-10l0,0
						c5.521,0,10,4.471,10,10l0,0c0,5.521-4.479,10-10,10l0,0C160.995,356.328,156.515,351.849,156.515,346.328z M122.354,346.328
						c0-5.529,4.479-10,10-10l0,0c5.521,0,10,4.471,10,10l0,0c0,5.521-4.479,10-10,10l0,0
						C126.834,356.328,122.354,351.849,122.354,346.328z M88.185,346.328c0-5.529,4.479-10,10.01-10l0,0c5.521,0,9.99,4.471,9.99,10
						l0,0c0,5.521-4.471,10-9.99,10l0,0C92.665,356.328,88.185,351.849,88.185,346.328z M53.984,346.328c0-5.529,4.472-10,10-10l0,0
						l0,0l0,0c5.521,0,9.99,4.471,9.99,10l0,0c0,5.521-4.471,9.987-9.99,9.987v0.013C58.455,356.328,53.984,351.849,53.984,346.328z
						 M190.664,346.498c-0.142-5.521,4.222-10.109,9.738-10.25l0,0l0,0l0,0c5.521-0.149,10.11,4.211,10.262,9.737l0,0
						c0.142,5.521-4.222,10.11-9.739,10.25l0,0c-0.091,0-0.181,0.013-0.261,0.013l0,0
						C195.255,356.239,190.805,351.939,190.664,346.498z M257.845,336.279c-2.41-4.97-0.341-10.947,4.63-13.367l0,0l0,0l0,0
						c4.97-2.41,10.949-0.33,13.358,4.641l0,0c2.41,4.97,0.341,10.949-4.63,13.359l0,0c-1.41,0.681-2.892,1-4.358,1l0,0
						C263.135,341.909,259.564,339.839,257.845,336.279z M308.992,292.919c-5.198-1.87-7.88-7.61-6.01-12.801l0,0l0,0l0,0
						c1.88-5.189,7.61-7.883,12.812-6l0,0c5.188,1.867,7.881,7.601,6,12.801l0,0c-1.473,4.066-5.312,6.6-9.409,6.6l0,0
						C311.265,293.519,310.114,293.328,308.992,292.919z M307.412,250.359c-0.196-5.52,4.11-10.16,9.633-10.357l0,0
						c5.521-0.199,10.157,4.107,10.357,9.631l0,0c0.2,5.52-4.107,10.159-9.63,10.356l0,0c-0.12,0-0.24,0.013-0.37,0.013l0,0
						C312.055,259.998,307.614,255.759,307.412,250.359z M300.794,220.959c-2.238-5.051,0.052-10.961,5.102-13.19l0,0
						c5.06-2.229,10.96,0.062,13.189,5.11l0,0c2.229,5.05-0.053,10.949-5.109,13.188l0,0c-1.312,0.58-2.681,0.854-4.03,0.854l0,0
						C306.104,226.919,302.444,224.698,300.794,220.959z M283.494,196.559L283.494,196.559L283.494,196.559
						c-4.021-3.79-4.21-10.12-0.432-14.14l0,0c3.79-4.021,10.12-4.211,14.142-0.42l0,0c4.021,3.776,4.21,10.106,0.42,14.13l0,0
						c-1.96,2.09-4.619,3.146-7.278,3.146l0,0C287.885,199.279,285.425,198.379,283.494,196.559z M257.944,180.24
						c-5.1-2.108-7.528-7.961-5.408-13.061l0,0c2.108-5.11,7.96-7.53,13.062-5.42l0,0c5.1,2.12,7.528,7.97,5.409,13.07l0,0
						c-1.591,3.85-5.312,6.17-9.239,6.17l0,0C260.494,180.999,259.194,180.759,257.944,180.24z M227.784,172.909
						c-5.5-0.53-9.521-5.423-8.99-10.923l0,0c0.528-5.5,5.421-9.52,10.921-8.979l0,0c5.5,0.53,9.521,5.42,8.989,10.92l0,0
						c-0.512,5.16-4.858,9.03-9.949,9.03l0,0C228.435,172.959,228.114,172.939,227.784,172.909z M184.654,162.329
						c0-5.53,4.472-10,10-10l0,0c5.521,0,10,4.47,10,10l0,0c0,5.52-4.479,10-10,10l0,0
						C189.124,172.329,184.654,167.849,184.654,162.329z M150.524,162.329c0-5.53,4.479-10,10-10l0,0c5.521,0,10,4.47,10,10l0,0
						c0,5.52-4.479,10-10,10l0,0C155.004,172.329,150.524,167.849,150.524,162.329z M116.404,162.329c0-5.53,4.472-10,10-10l0,0
						c5.521,0,10,4.47,10,10l0,0c0,5.52-4.479,10-10,10l0,0C120.874,172.329,116.404,167.849,116.404,162.329z"/>
				</g>
				<g>
					<path stroke="#000000" stroke-width="5" stroke-miterlimit="10" d="M92.475,171.859c-2.63,0-5.21-1.067-7.07-2.93
						c-1.858-1.861-2.93-4.44-2.93-7.07c0-2.64,1.069-5.21,2.93-7.067c1.86-1.87,4.44-2.933,7.07-2.933s5.21,1.062,7.069,2.933
						c1.858,1.857,2.931,4.43,2.931,7.067c0,2.63-1.07,5.21-2.931,7.07C97.685,170.789,95.104,171.859,92.475,171.859z"/>
				</g>
			</g>
		</g>
		<g>
			<g>
				<g>
					<path stroke="#000000" stroke-width="5" stroke-miterlimit="10" d="M70.975,54.349c-2.63,0-5.21-1.06-7.07-2.92
						c-1.858-1.87-2.93-4.44-2.93-7.07c0-2.64,1.069-5.21,2.93-7.08c1.86-1.857,4.44-2.92,7.07-2.92s5.21,1.062,7.069,2.92
						c1.858,1.86,2.931,4.44,2.931,7.08c0,2.63-1.07,5.21-2.931,7.07C76.185,53.289,73.604,54.349,70.975,54.349z"/>
				</g>
				<g>
					<path stroke="#000000" stroke-width="5" stroke-miterlimit="10" d="M60.984,289.328c0-5.529,4.472-10,10-10l0,0
						c5.521,0,10,4.471,10,10l0,0c0,5.521-4.479,9.987-10,9.987l0,0C65.455,299.319,60.984,294.849,60.984,289.328z M60.984,254.328
						c0-5.529,4.472-10,10-10l0,0c5.521,0,10,4.471,10,10l0,0c0,5.521-4.479,10-10,10l0,0
						C65.455,264.328,60.984,259.849,60.984,254.328z M60.984,219.328c0-5.529,4.472-10,10-10l0,0c5.521,0,10,4.471,10,10l0,0
						c0,5.521-4.479,10-10,10l0,0C65.455,229.328,60.984,224.849,60.984,219.328z M60.984,184.328c0-5.53,4.472-10,10-10l0,0
						c5.521,0,10,4.469,10,10l0,0c0,5.521-4.479,10-10,10l0,0C65.455,194.328,60.984,189.849,60.984,184.328z M60.984,149.329
						c0-5.53,4.472-10,10-10l0,0c5.521,0,10,4.47,10,10l0,0c0,5.52-4.479,10-10,10l0,0
						C65.455,159.329,60.984,154.849,60.984,149.329z M60.984,114.329c0-5.53,4.472-10,10-10l0,0c5.521,0,10,4.47,10,10l0,0
						c0,5.52-4.479,10-10,10l0,0C65.455,124.329,60.984,119.849,60.984,114.329z M60.984,79.329c0-5.53,4.472-10,10-10l0,0
						c5.521,0,10,4.47,10,10l0,0c0,5.52-4.479,10-10,10l0,0C65.455,89.329,60.984,84.849,60.984,79.329z"/>
				</g>
				<g>
					<path stroke="#000000" stroke-width="5" stroke-miterlimit="10" d="M70.975,330.359c-2.63,0-5.21-1.067-7.07-2.93
						c-1.858-1.87-2.93-4.44-2.93-7.07c0-2.64,1.069-5.21,2.93-7.08c1.86-1.856,4.44-2.92,7.07-2.92s5.21,1.062,7.069,2.92
						c1.858,1.87,2.931,4.45,2.931,7.08s-1.07,5.2-2.931,7.07C76.185,329.288,73.604,330.359,70.975,330.359z"/>
				</g>
			</g>
		</g>
	</g>
	<path stroke="#000000" stroke-width="5" stroke-miterlimit="10" d="M224.453,342.677c-0.142-5.521,4.222-10.109,9.738-10.25l0,0
		l0,0l0,0c5.521-0.149,10.11,4.211,10.262,9.739l0,0c0.142,5.521-4.222,10.108-9.739,10.25l0,0c-0.091,0-0.181,0.011-0.261,0.011
		l0,0C229.044,352.417,224.594,348.117,224.453,342.677z"/>
	<path stroke="#000000" stroke-width="5" stroke-miterlimit="10" d="M284.536,312.427c-0.142-5.521,4.222-10.109,9.738-10.25l0,0
		l0,0l0,0c5.521-0.149,10.11,4.211,10.262,9.739l0,0c0.142,5.521-4.222,10.108-9.739,10.25l0,0c-0.091,0-0.181,0.011-0.261,0.011
		l0,0C289.127,322.167,284.677,317.867,284.536,312.427z"/>
</g>
<g id="P__x2013__Soda">
	<g>
		<g>
			<path stroke="#000000" stroke-width="5" stroke-miterlimit="10" d="M208.674,182.674c-0.22-5.521,4.08-10.169,9.591-10.39l0,0
				c5.521-0.223,10.171,4.066,10.391,9.59l0,0c0.222,5.521-4.068,10.17-9.59,10.39l0,0c-0.142,0.011-0.271,0.011-0.398,0.011l0,0
				C213.324,192.274,208.884,188.054,208.674,182.674z M185.164,192.194c-5.521-0.01-9.99-4.51-9.972-10.027l0,0
				c0.021-5.521,4.512-9.98,10.03-9.973l0,0c5.521,0.021,9.988,4.513,9.97,10.03l0,0c-0.021,5.51-4.488,9.97-10,9.97l0,0
				C185.185,192.194,185.174,192.194,185.164,192.194z M151.164,192.094c-5.521-0.01-9.99-4.5-9.972-10.029l0,0
				c0.021-5.521,4.512-9.979,10.03-9.97l0,0c5.521,0.02,9.989,4.509,9.97,10.03l0,0c-0.021,5.51-4.488,9.97-10,9.97l0,0
				C151.184,192.094,151.175,192.094,151.164,192.094z M117.164,191.994c-5.521-0.013-9.979-4.5-9.972-10.029l0,0
				c0.021-5.521,4.512-9.98,10.03-9.971l0,0c5.521,0.02,9.989,4.51,9.97,10.026l0,0c-0.01,5.514-4.488,9.974-10,9.974l0,0
				C117.184,191.994,117.175,191.994,117.164,191.994z M242.405,178.434c-2.38-4.989-0.271-10.949,4.722-13.339l0,0c0,0,0,0,0,0.01
				l0,0c4.979-2.39,10.95-0.277,13.33,4.7l0,0c2.38,4.99,0.271,10.959-4.71,13.34l0,0c-1.392,0.659-2.86,0.979-4.312,0.979l0,0
				C247.704,184.124,244.124,182.023,242.405,178.434z M271.764,161.244c-4.199-3.593-4.681-9.91-1.079-14.103l0,0
				c3.59-4.188,9.909-4.67,14.102-1.08l0,0c4.188,3.603,4.67,9.91,1.079,14.11l0,0c-1.979,2.3-4.779,3.479-7.602,3.479l0,0
				C275.964,163.654,273.645,162.864,271.764,161.244z M291.475,133.564c-5.32-1.52-8.398-7.05-6.881-12.357l0,0
				c1.511-5.312,7.039-8.393,12.351-6.883l0,0c5.312,1.513,8.392,7.04,6.882,12.36l0,0c-1.25,4.39-5.262,7.26-9.61,7.26l0,0
				C293.304,133.944,292.384,133.823,291.475,133.564z M286.994,91.334c-0.592-5.5,3.39-10.42,8.89-11l0,0
				c5.49-0.58,10.411,3.397,10.988,8.89l0,0c0.593,5.49-3.396,10.42-8.89,11l0,0c-0.352,0.03-0.71,0.05-1.062,0.05l0,0
				C291.874,100.274,287.534,96.464,286.994,91.334z M277.784,63.604c-2.91-4.68-1.479-10.85,3.21-13.77l0,0
				c4.688-2.91,10.858-1.48,13.778,3.21l0,0c2.91,4.688,1.479,10.857-3.21,13.777l0,0c-1.648,1.021-3.472,1.513-5.271,1.513l0,0
				C282.945,68.334,279.685,66.654,277.784,63.604z M256.994,43.194c0,0,0,0,0,0.013l0,0c-4.689-2.92-6.12-9.093-3.21-13.78l0,0
				c2.92-4.69,9.078-6.12,13.778-3.21l0,0c4.688,2.92,6.12,9.09,3.21,13.78l0,0c-1.898,3.04-5.16,4.72-8.511,4.72l0,0
				C260.464,44.714,258.645,44.224,256.994,43.194z M228.605,31.864c-5.38-1.237-8.722-6.617-7.472-12l0,0
				c1.24-5.38,6.62-8.729,12-7.479l0,0c5.381,1.25,8.722,6.63,7.479,12.01l0,0c-1.078,4.61-5.188,7.74-9.738,7.74l0,0
				C230.134,32.134,229.374,32.044,228.605,31.864z M197.065,28.344c-5.521-0.05-9.96-4.57-9.91-10.09l0,0
				c0.052-5.521,4.57-9.96,10.092-9.91l0,0c5.521,0.05,9.96,4.57,9.908,10.09l0,0c-0.05,5.5-4.521,9.91-10,9.91l0,0
				C197.124,28.344,197.094,28.344,197.065,28.344z M153.094,18.344c0-5.53,4.479-10,10-10l0,0c5.52,0,10,4.47,10,10l0,0
				c0,5.52-4.48,10-10,10l0,0C157.574,28.344,153.094,23.864,153.094,18.344z M119.034,18.344c0-5.53,4.479-10,10-10l0,0
				c5.528,0,10,4.47,10,10l0,0c0,5.52-4.472,10-10,10l0,0C123.514,28.344,119.034,23.864,119.034,18.344z M84.974,18.344
				c0-5.53,4.479-10,10-10l0,0c5.529,0,10,4.47,10,10l0,0c0,5.52-4.471,10-10,10l0,0C89.454,28.344,84.974,23.864,84.974,18.344z
				 M50.905,18.344c0-5.53,4.472-10,10-10l0,0c5.521,0,10,4.47,10,10l0,0c0,5.52-4.479,10-10,10l0,0
				C55.374,28.344,50.905,23.864,50.905,18.344z"/>
		</g>
		<g>
			<path stroke="#000000" stroke-width="5" stroke-miterlimit="10" d="M108.454,346.344c0-5.529,4.47-10,9.988-10l0,0
				c5.53,0,10.012,4.471,10.012,10l0,0c0,5.521-4.479,10-10.012,10l0,0C112.925,356.344,108.454,351.864,108.454,346.344z
				 M74.454,346.344c0-5.529,4.47-10,10-10l0,0c5.521,0,10,4.471,10,10l0,0c0,5.521-4.479,10-10,10l0,0
				C78.925,356.344,74.454,351.864,74.454,346.344z M40.454,346.344c0-5.529,4.47-10,10-10l0,0c5.521,0,10,4.471,10,10l0,0
				c0,5.521-4.479,10-10,10l0,0C44.925,356.344,40.454,351.864,40.454,346.344z"/>
		</g>
		<g>
			<path stroke="#000000" stroke-width="5" stroke-miterlimit="10" d="M81.454,320.344c0-5.529,4.47-10.01,10-10.01l0,0
				c5.521,0,10,4.479,10,10.01l0,0c0,5.521-4.479,10-10,10l0,0C85.925,330.344,81.454,325.864,81.454,320.344z M81.454,286.334
				c0-5.521,4.47-10,10-10l0,0c5.521,0,10,4.479,10,10l0,0c0,5.527-4.479,10.01-10,10.01l0,0
				C85.925,296.344,81.454,291.864,81.454,286.334z M81.454,252.334c0-5.521,4.47-9.99,10-9.99l0,0c5.521,0,10,4.471,10,9.99l0,0
				c0,5.527-4.479,10.01-10,10.01l0,0C85.925,262.344,81.454,257.864,81.454,252.334z M81.454,218.334c0-5.521,4.47-9.99,10-9.99
				l0,0c5.521,0,10,4.471,10,9.99l0,0c0,5.527-4.479,10-10,10l0,0C85.925,228.334,81.454,223.864,81.454,218.334z M81.454,184.344
				c0-5.529,4.47-10,10-10l0,0c5.521,0,10,4.47,10,10l0,0c0,5.521-4.479,9.99-10,9.99l0,0
				C85.925,194.334,81.454,189.864,81.454,184.344z M81.454,150.344c0-5.53,4.47-10.01,10-10.01l0,0c5.521,0,10,4.479,10,10.01l0,0
				c0,5.52-4.479,10-10,10l0,0C85.925,160.344,81.454,155.864,81.454,150.344z M81.454,116.344c0-5.53,4.47-10,10-10l0,0
				c5.521,0,10,4.47,10,10l0,0c0,5.52-4.479,10-10,10l0,0C85.925,126.344,81.454,121.864,81.454,116.344z M81.454,82.334
				c0-5.521,4.47-9.99,10-9.99l0,0c5.521,0,10,4.47,10,9.99l0,0c0,5.527-4.479,10.01-10,10.01l0,0
				C85.925,92.344,81.454,87.864,81.454,82.334z M81.454,48.344c0-5.53,4.47-10,10-10l0,0c5.521,0,10,4.47,10,10l0,0
				c0,5.52-4.479,10-10,10l0,0C85.925,58.344,81.454,53.864,81.454,48.344z"/>
		</g>
		<g>
			<path stroke="#000000" stroke-width="5" stroke-miterlimit="10" d="M208.674,182.674c-0.22-5.521,4.08-10.169,9.591-10.39l0,0
				c5.521-0.223,10.171,4.066,10.391,9.59l0,0c0.222,5.521-4.068,10.17-9.59,10.39l0,0c-0.142,0.011-0.271,0.011-0.398,0.011l0,0
				C213.324,192.274,208.884,188.054,208.674,182.674z M185.164,192.194c-5.521-0.01-9.99-4.51-9.972-10.027l0,0
				c0.021-5.521,4.512-9.98,10.03-9.973l0,0c5.521,0.021,9.988,4.513,9.97,10.03l0,0c-0.021,5.51-4.488,9.97-10,9.97l0,0
				C185.185,192.194,185.174,192.194,185.164,192.194z M151.164,192.094c-5.521-0.01-9.99-4.5-9.972-10.029l0,0
				c0.021-5.521,4.512-9.979,10.03-9.97l0,0c5.521,0.02,9.989,4.509,9.97,10.03l0,0c-0.021,5.51-4.488,9.97-10,9.97l0,0
				C151.184,192.094,151.175,192.094,151.164,192.094z M117.164,191.994c-5.521-0.013-9.979-4.5-9.972-10.029l0,0
				c0.021-5.521,4.512-9.98,10.03-9.971l0,0c5.521,0.02,9.989,4.51,9.97,10.026l0,0c-0.01,5.514-4.488,9.974-10,9.974l0,0
				C117.184,191.994,117.175,191.994,117.164,191.994z M242.405,178.434c-2.38-4.989-0.271-10.949,4.722-13.339l0,0c0,0,0,0,0,0.01
				l0,0c4.979-2.39,10.95-0.277,13.33,4.7l0,0c2.38,4.99,0.271,10.959-4.71,13.34l0,0c-1.392,0.659-2.86,0.979-4.312,0.979l0,0
				C247.704,184.124,244.124,182.023,242.405,178.434z M271.764,161.244c-4.199-3.593-4.681-9.91-1.079-14.103l0,0
				c3.59-4.188,9.909-4.67,14.102-1.08l0,0c4.188,3.603,4.67,9.91,1.079,14.11l0,0c-1.979,2.3-4.779,3.479-7.602,3.479l0,0
				C275.964,163.654,273.645,162.864,271.764,161.244z M291.475,133.564c-5.32-1.52-8.398-7.05-6.881-12.357l0,0
				c1.511-5.312,7.039-8.393,12.351-6.883l0,0c5.312,1.513,8.392,7.04,6.882,12.36l0,0c-1.25,4.39-5.262,7.26-9.61,7.26l0,0
				C293.304,133.944,292.384,133.823,291.475,133.564z M286.994,91.334c-0.592-5.5,3.39-10.42,8.89-11l0,0
				c5.49-0.58,10.411,3.397,10.988,8.89l0,0c0.593,5.49-3.396,10.42-8.89,11l0,0c-0.352,0.03-0.71,0.05-1.062,0.05l0,0
				C291.874,100.274,287.534,96.464,286.994,91.334z M277.784,63.604c-2.91-4.68-1.479-10.85,3.21-13.77l0,0
				c4.688-2.91,10.858-1.48,13.778,3.21l0,0c2.91,4.688,1.479,10.857-3.21,13.777l0,0c-1.648,1.021-3.472,1.513-5.271,1.513l0,0
				C282.945,68.334,279.685,66.654,277.784,63.604z M256.994,43.194c0,0,0,0,0,0.013l0,0c-4.689-2.92-6.12-9.093-3.21-13.78l0,0
				c2.92-4.69,9.078-6.12,13.778-3.21l0,0c4.688,2.92,6.12,9.09,3.21,13.78l0,0c-1.898,3.04-5.16,4.72-8.511,4.72l0,0
				C260.464,44.714,258.645,44.224,256.994,43.194z M228.605,31.864c-5.38-1.237-8.722-6.617-7.472-12l0,0
				c1.24-5.38,6.62-8.729,12-7.479l0,0c5.381,1.25,8.722,6.63,7.479,12.01l0,0c-1.078,4.61-5.188,7.74-9.738,7.74l0,0
				C230.134,32.134,229.374,32.044,228.605,31.864z M197.065,28.344c-5.521-0.05-9.96-4.57-9.91-10.09l0,0
				c0.052-5.521,4.57-9.96,10.092-9.91l0,0c5.521,0.05,9.96,4.57,9.908,10.09l0,0c-0.05,5.5-4.521,9.91-10,9.91l0,0
				C197.124,28.344,197.094,28.344,197.065,28.344z M153.094,18.344c0-5.53,4.479-10,10-10l0,0c5.52,0,10,4.47,10,10l0,0
				c0,5.52-4.48,10-10,10l0,0C157.574,28.344,153.094,23.864,153.094,18.344z M119.034,18.344c0-5.53,4.479-10,10-10l0,0
				c5.528,0,10,4.47,10,10l0,0c0,5.52-4.472,10-10,10l0,0C123.514,28.344,119.034,23.864,119.034,18.344z M84.974,18.344
				c0-5.53,4.479-10,10-10l0,0c5.529,0,10,4.47,10,10l0,0c0,5.52-4.471,10-10,10l0,0C89.454,28.344,84.974,23.864,84.974,18.344z
				 M50.905,18.344c0-5.53,4.472-10,10-10l0,0c5.521,0,10,4.47,10,10l0,0c0,5.52-4.479,10-10,10l0,0
				C55.374,28.344,50.905,23.864,50.905,18.344z"/>
		</g>
		<g>
			<path stroke="#000000" stroke-width="5" stroke-miterlimit="10" d="M108.454,346.344c0-5.529,4.47-10,9.988-10l0,0
				c5.53,0,10.012,4.471,10.012,10l0,0c0,5.521-4.479,10-10.012,10l0,0C112.925,356.344,108.454,351.864,108.454,346.344z
				 M74.454,346.344c0-5.529,4.47-10,10-10l0,0c5.521,0,10,4.471,10,10l0,0c0,5.521-4.479,10-10,10l0,0
				C78.925,356.344,74.454,351.864,74.454,346.344z M40.454,346.344c0-5.529,4.47-10,10-10l0,0c5.521,0,10,4.471,10,10l0,0
				c0,5.521-4.479,10-10,10l0,0C44.925,356.344,40.454,351.864,40.454,346.344z"/>
		</g>
		<g>
			<path stroke="#000000" stroke-width="5" stroke-miterlimit="10" d="M81.454,320.344c0-5.529,4.47-10.01,10-10.01l0,0
				c5.521,0,10,4.479,10,10.01l0,0c0,5.521-4.479,10-10,10l0,0C85.925,330.344,81.454,325.864,81.454,320.344z M81.454,286.334
				c0-5.521,4.47-10,10-10l0,0c5.521,0,10,4.479,10,10l0,0c0,5.527-4.479,10.01-10,10.01l0,0
				C85.925,296.344,81.454,291.864,81.454,286.334z M81.454,252.334c0-5.521,4.47-9.99,10-9.99l0,0c5.521,0,10,4.471,10,9.99l0,0
				c0,5.527-4.479,10.01-10,10.01l0,0C85.925,262.344,81.454,257.864,81.454,252.334z M81.454,218.334c0-5.521,4.47-9.99,10-9.99
				l0,0c5.521,0,10,4.471,10,9.99l0,0c0,5.527-4.479,10-10,10l0,0C85.925,228.334,81.454,223.864,81.454,218.334z M81.454,184.344
				c0-5.529,4.47-10,10-10l0,0c5.521,0,10,4.47,10,10l0,0c0,5.521-4.479,9.99-10,9.99l0,0
				C85.925,194.334,81.454,189.864,81.454,184.344z M81.454,150.344c0-5.53,4.47-10.01,10-10.01l0,0c5.521,0,10,4.479,10,10.01l0,0
				c0,5.52-4.479,10-10,10l0,0C85.925,160.344,81.454,155.864,81.454,150.344z M81.454,116.344c0-5.53,4.47-10,10-10l0,0
				c5.521,0,10,4.47,10,10l0,0c0,5.52-4.479,10-10,10l0,0C85.925,126.344,81.454,121.864,81.454,116.344z M81.454,82.334
				c0-5.521,4.47-9.99,10-9.99l0,0c5.521,0,10,4.47,10,9.99l0,0c0,5.527-4.479,10.01-10,10.01l0,0
				C85.925,92.344,81.454,87.864,81.454,82.334z M81.454,48.344c0-5.53,4.47-10,10-10l0,0c5.521,0,10,4.47,10,10l0,0
				c0,5.52-4.479,10-10,10l0,0C85.925,58.344,81.454,53.864,81.454,48.344z"/>
		</g>
	</g>
</g>
<g id="B__x2013__Nettari">
	<g>
		<g>
			<path d="M304.286,161.367c-5.299-4.722-14.211-7.644-20.404-11.339c4.686-6.481,12.477-13.189,14.889-20.577
				c2.409-7.38,1.29-15.771,1.29-23.788c0-9.313,0.694-18.99-2.565-27.327c-3.24-8.278-7.566-17.395-13.812-24.358
				c-5.761-6.422-17.466-6.322-25.606-11.345c-6.062-3.737-11.974-6.607-19.09-9.355c-6.634-2.562-11.792-10.219-19.229-11.895
				c-6.952-1.565-14.775,0.854-22.343,0.085c-7.115-0.723-14.266-5.115-21.847-5.115c-11.208,0-11.208,4.246-22.415,4.246
				c-11.208,0-11.208-1.896-22.415-1.896s-11.208-1.229-22.412-1.229c-11.208,0-11.208,0.598-22.42,0.598
				c-11.21,0-11.21-2.182-22.419-2.182s-11.211,3.34-22.421,3.34c-8.281,0-16.474,1.655-21.898,7.084
				c-5.432,5.432-7.543,13.617-7.543,21.901s3.5,15.088,8.929,20.517c5.43,5.432,12.232,13.573,20.517,13.573
				c6,0,12.854-11.304,15.633-5.984c5.316,10.192-5.433,13.395-5.433,24.892c0,11.498,1.993,11.498,1.993,22.997
				s-0.182,11.499-0.182,22.997c0,11.5,0.5,11.5,0.5,23s-4.146,11.5-4.146,23s7.743,11.5,7.743,23
				c0,11.502-7.887,11.502-7.887,23.002c0,11.502-0.095,11.502-0.095,23.004c0,11.504,11.331,13.926,6.013,24.123
				c-2.774,5.316-8.146-2.611-14.146-2.611c-8.283,0-18.108,2.523-23.541,7.953c-5.429,5.43-6.361,15.257-6.361,23.541
				c0,8.283,6.154,12.889,11.586,18.313c5.43,5.433,10.032,12.522,18.315,12.522c12.771,0,12.771-0.224,25.545-0.224
				c12.772,0,12.771-5.053,25.546-5.053c12.771,0,12.771,6.446,25.544,6.446c12.771,0,12.771-6.291,25.547-6.291
				c12.772,0,12.771,7.863,25.549,7.863c12.772,0,12.772-0.916,25.55-0.916c7.49,0,14.432-6.649,21.419-7.217
				c7.475-0.607,14.244-1.771,21.132-3.022c7.378-1.342,15.771,2.936,22.459,0.854c7.144-2.223,14.51-4.293,20.848-7.354
				c6.683-3.224,10.337-11.354,16.104-15.501c6.381-4.588,11.687-9.377,16.645-14.899c5.187-5.777,9.504-11.449,13.047-18.096
				c3.593-6.729,6.833-13.229,8.651-20.678c1.776-7.277,1.577-14.556,1.577-22.354c0-7.403-0.385-14.247-1.903-21.301
				c-1.542-7.156-3.548-13.761-6.582-20.391c-3.014-6.588-6.844-12.32-11.257-18.223
				C312.181,173.961,309.839,166.314,304.286,161.367z M175.563,79.495c9.248,0,18.036-2.824,25.496-1.552
				c9.648,1.649,16.438,8.312,22.736,11.441c10.237,5.087,17.122,9.825,17.122,16.276c0,7.707-8.34,13.114-18.751,17.928
				c-7.652,3.538-16.253,4.378-26.104,4.378c-13.833,0-13.833,7.62-27.665,7.62c-13.834,0-13.834,0.023-27.668,0.023
				s-16.664,4.112-26.652-5.456c-9.569-9.163-3.188-12.19-3.188-25.44s-4.55-14.933,3.64-25.351
				c6.438-8.188,8.949-3.532,19.365-3.532c10.417,0,10.445,1.471,20.854,1.896C165.185,78.156,165.145,79.495,175.563,79.495z
				 M194.341,283.938c-13.545,0-13.545,3.578-27.091,3.578c-13.547,0-13.547-4.331-27.096-4.331
				c-13.548,0-17.143,11.23-27.375,2.354c-8.876-7.697,2.375-12.072,2.375-23.822c0-11.748,1.152-11.748,1.152-23.497
				c0-11.751-7.621-11.751-7.621-23.503c0-11.75-7.254-18.787,1.396-26.739c9.41-8.648,15.759,4.702,28.542,4.702
				c12.782,0,12.782-3.639,25.563-3.639c12.784,0,12.784,4.037,25.568,4.037c12.785,0,12.785-4.246,25.569-4.246
				c9.174,0,17.95,3.159,25.726,5.537c8.802,2.689,15.86,7.855,21.977,13.307c4.777,4.257,8.861,8.726,11.407,14.138
				c2.62,5.569,1.798,11.561,1.798,17.809c0,9.153-0.363,17.889-6.771,24.551c-5.405,5.621-14.011,8.656-23.404,12.191
				c-7.433,2.801-15.608,6.361-25.247,7.697C212.721,285.184,203.821,283.938,194.341,283.938z"/>
		</g>
	</g>
</g>
<g id="P__x2013__Nettari">
	<g>
		<g>
			<path d="M279.034,40.134c-6.009-3.979-11.038-10.948-18.382-13.743c-6.629-2.521-15.018-1.009-22.797-2.584
				c-6.938-1.405-14.42-0.348-22.318-1.008c-7.09-0.593-14.322-3.926-22.217-3.926c-6.452,0-13.987-4.007-22.114-3.988
				c-7.022,0.017-14.485,3.767-22.104,3.793c-7.327,0.024-14.772,3.164-22.103,3.194c-7.619,0.028-15.101-1.819-22.121-1.787
				c-8.132,0.038-15.67-1.868-22.126-1.835c-13.137,0.063-21.827,0.417-22.104,0.419c-8.285,0.046-14.208,5.755-19.604,11.215
				c-5.397,5.459-6.018,11.418-5.968,19.702c0.046,8.254,1.417,13.473,6.839,18.866c5.426,5.396,14.229,7.005,18.899,8.331
				c4.67,1.323,4.523,14.149,4.523,25.646c0,11.499-1.312,11.499-1.312,22.997c0,11.499-4.18,11.499-4.18,22.998
				c0,11.5,3.896,11.5,3.896,23.001s0.944,11.501,0.944,23.001s-3.306,11.5-3.306,23c0,11.501-1.488,11.501-1.488,23.002
				c0,11.502,1.955,11.502,1.955,23.005s-2.857,11.368-3.355,22.859c-0.021,0.5,2.825,0.301,2.325,0.301
				c-8.281,0-14.009,4.977-19.438,10.406c-5.429,5.429-11.023,11.15-11.023,19.438s1.502,18.104,6.934,23.531
				c5.431,5.43,15.248,9.833,23.53,9.833c10.165,0,10.165-6.321,20.33-6.321c10.167,0,10.167,4.357,20.334,4.357
				s10.167-4.037,20.334-4.037c8.284,0,18,1.494,23.432-3.938c5.43-5.43,8.171-15.146,8.171-23.43s-5.192-15.549-10.622-20.978
				c-5.429-5.434-16.848-7.634-25.132-7.634c-3.932-11.741,0.814-13.771,0.814-26.153s-0.479-12.383-0.479-24.77
				c0-12.384-7.587-18.729,1.281-27.368c9.062-8.837,15.182,6.714,27.84,6.761c12.659,0.046,12.673-3.442,25.333-3.396
				c12.659,0.046,12.712-3.822,25.371-3.628c1.753,0.327,5.447,1.526,5.497,1.526c2.173,0,4.076,0.005,6.118-0.44
				c8.373-0.471,15.806-3.662,23.97-5.91c8.114-2.23,17.008-1.465,24.51-5.31c7.522-3.857,12.794-10.606,19.288-15.937
				c5.714-4.688,16.243-4.511,20.697-9.922c4.66-5.661,6.223-13.976,9.432-20.277c3.283-6.457,1.812-14.442,3.488-21.411
				c1.677-6.938,4.643-13.373,4.643-20.654c0-7.619,2.504-15.075,1.167-21.407c-1.57-7.432-7.505-12.931-10.408-18.751
				c-3.37-6.757-5.649-13.646-10.018-18.484C291.061,46.584,284.266,43.6,279.034,40.134z M241.859,140.127
				c-5.188,4.26-12.974,4.126-19.441,6.47c-6.521,2.363-20.387,9.354-21.021,9.394c-13.264-0.048-13.252-3.115-26.516-3.188
				c-13.267-0.069-13.243-4.088-26.509-4.157c-13.268-0.066-16.583,12.708-26.31,3.688c-8.973-8.326-2.995-11.979-2.995-24.22
				c0-12.238,1.887-12.238,1.887-24.48s-1.831-12.494,1.892-24.157c7.823-0.033,14.86,0.38,22.812,0.354
				c8.187-0.03,16.246-3.018,23.831-3.034c8.788-0.021,16.932-2.104,23.832-2.104c11.01,0,20.478,1.807,27.812,2.92
				c13.389,2.036,22.257,6.389,26.844,9.427c5.101,3.375,6.875,10.557,6.875,23.907C254.851,124.779,247.52,135.483,241.859,140.127
				z"/>
		</g>
	</g>
</g>
<g id="B__x2013__Sake">
	<g>
		<g>
			<path d="M50.907,345.877l0.5-287.066H9.943v-40h287.005v56h-40v-16H91.408l-0.073,42.001h103.106
				c44.876,0,80.338,11.093,105.401,32.97c24.598,21.472,37.599,52.454,37.599,89.604c0,37.123-13.038,67.967-37.703,89.196
				c-24.963,21.481-60.391,32.378-105.297,32.378c-80.866,0-122.789,0.605-123.203,0.615L50.907,345.877z M91.265,140.811
				l-0.287,164.548c20.025-0.179,54.711-0.396,103.465-0.396c46.988,0,103-14.152,103-81.574c0-25.617-8.042-45.626-23.899-59.47
				c-17.316-15.115-44.669-23.104-79.101-23.104L91.265,140.811L91.265,140.811z"/>
		</g>
		<g>
			<path d="M50.907,345.877l0.5-287.066H9.943v-40H297.19l-0.747,60.746l-39.996-0.492l0.249-20.254H91.408l-0.073,42.001h103.106
				c44.876,0,80.338,11.093,105.401,32.97c24.598,21.472,37.599,52.454,37.599,89.604c0,37.123-13.038,67.967-37.703,89.196
				c-24.963,21.481-60.391,32.378-105.297,32.378c-80.866,0-122.789,0.605-123.203,0.615L50.907,345.877z M91.265,140.811
				l-0.287,164.548c20.025-0.179,54.711-0.396,103.465-0.396c46.988,0,103-14.152,103-81.574c0-25.617-8.042-45.626-23.899-59.47
				c-17.316-15.115-44.669-23.104-79.101-23.104L91.265,140.811L91.265,140.811z"/>
		</g>
	</g>
</g>
<g id="P__x2013__Sake">
	<g>
		<g>
			<path d="M202.948,346.054H9.943v-40H51.41l-0.5-287.419l20.22,0.187c0.414,0.007,42.374,0.385,123.313,0.385
				c118.19,0,143,60.863,143,111.926c0,37.457-13.02,66.281-38.695,85.673c-24.283,18.339-58.399,27.253-104.305,27.253H91.3
				l0.108,61.999h111.538L202.948,346.054L202.948,346.054z M91.23,204.055h103.212c36.368,0,63.353-6.451,80.197-19.173
				c15.344-11.588,22.803-29.17,22.803-53.753c0-33.488-11.707-71.926-103-71.926c-48.794,0-83.476-0.14-103.465-0.248
				L91.23,204.055z"/>
		</g>
	</g>
</g>
<g id="B__x2013__Pisco">
	<g>
		<path d="M229.693,348.462h-184.5c-0.694,0-1.342-0.362-1.706-0.956c-0.362-0.594-0.392-1.334-0.074-1.954
			c0.104-0.206,10.535-20.734,10.535-29.809v-267c0-9.866-10.518-28.835-10.625-29.026c-0.344-0.617-0.337-1.369,0.02-1.979
			c0.354-0.607,1.007-0.986,1.713-0.992c0.609-0.008,61.741-0.52,123.041-0.52c47.646,0,74.664,3.789,93.254,13.077
			c21.728,10.856,31.845,30.05,31.845,60.405c0,32.915-17.07,51.146-31.396,60.646c-7.251,4.812-14.452,7.901-20.119,9.838
			c8.005,1.199,19.226,3.806,30.516,9.457c19.159,9.6,41.999,30.129,41.999,73.451c0,29.584-7.314,69.493-42.179,91.618
			c-20.86,13.239-41.424,13.726-42.288,13.74C229.715,348.462,229.703,348.462,229.693,348.462z M48.406,344.462h181.268
			c0.632-0.019,20.647-0.649,40.352-13.215c26.655-16.999,40.17-46.655,40.17-88.146c0-33.132-13.381-56.638-39.771-69.864
			c-19.848-9.945-40.027-10.063-40.229-10.063c-1.045,0-1.912-0.804-1.993-1.845c-0.08-1.041,0.652-1.972,1.687-2.134
			c0.148-0.021,15.067-2.442,29.763-12.212c19.604-13.029,29.546-32.303,29.546-57.273c0-59.085-39.049-69.482-121.099-69.482
			c-53.146,0-106.168,0.385-119.707,0.491c3.076,5.963,9.562,19.536,9.562,28.026v267C57.948,323.663,51.389,338.24,48.406,344.462z
			"/>
		<path d="M188.694,296.462H116.95c-1.104,0-2-0.896-2-2V182.743c0-0.824,0.506-1.564,1.273-1.863c0.77-0.3,1.644-0.1,2.198,0.512
			c0.177,0.191,18.132,19.281,49.646,19.281c34.513,0,74.123,6.03,74.123,53.056C242.194,282.483,224.694,296.462,188.694,296.462z
			 M118.949,292.462h69.742c33.771,0,49.5-12.311,49.5-38.733c0-34.385-20.972-49.056-70.123-49.056
			c-25.467,0-42.263-11.513-49.119-17.327L118.949,292.462L118.949,292.462z"/>
		<g>
			<path d="M230.193,161.173c0,0,61-9.465,61-71.465c0-61-40.938-71.482-123.099-71.482c-61.999,0-123.023,0.52-123.023,0.52
				s10.88,19.5,10.88,30s0,257.334,0,267c0,9.667-10.758,30.719-10.758,30.719h184.5c0,0,82.5-1.358,82.5-103.358
				C312.193,161.104,230.193,161.173,230.193,161.173z M116.949,68.462c0,0,31.242,0,49.742,0c42.5,0,53,10.341,53,41.141
				c0,30.5-20.373,41.07-51.623,41.07c-31.062,0-51.119-19.93-51.119-19.93L116.949,68.462L116.949,68.462z M188.693,294.462
				c-30.227,0-71.742,0-71.742,0V182.743c0,0,18.271,19.93,51.119,19.93c41.75,0,72.123,10.056,72.123,51.056
				C240.193,284.606,218.921,294.462,188.693,294.462z"/>
			<path d="M168.071,152.673c-31.521,0-51.688-19.673-52.529-20.511c-0.378-0.375-0.59-0.889-0.59-1.419V68.462c0-1.104,0.896-2,2-2
				h49.742c42.149,0,55,10.08,55,43.141C221.694,138.584,204.154,152.673,168.071,152.673z M118.949,129.873
				c3.492,3.155,22.173,18.799,49.119,18.799c33.854,0,49.623-12.415,49.623-39.07c0-30.728-10.963-39.141-51-39.141h-47.742
				L118.949,129.873L118.949,129.873z"/>
		</g>
		<g>
			<path d="M55.694,160.743c0,20.334-20.5,31-20.5,31s20.5,9.5,20.5,30.5"/>
			<path d="M55.694,224.243c-1.104,0-2-0.896-2-2c0-19.497-19.146-28.599-19.341-28.688c-0.69-0.32-1.142-1.007-1.159-1.769
				c-0.019-0.766,0.4-1.471,1.076-1.82c0.191-0.103,19.423-10.379,19.423-29.228c0-1.104,0.896-2,2-2s2,0.896,2,2
				c0,16.59-12.549,26.938-18.52,30.924c6.021,3.719,18.52,13.493,18.52,30.576C57.694,223.347,56.798,224.243,55.694,224.243z"/>
		</g>
		<g>
			<path fill="none" stroke="#000000" stroke-width="4" stroke-linecap="round" stroke-linejoin="round" stroke-miterlimit="10" d="
				M173.444,230.312"/>
		</g>
	</g>
</g>
<g id="P__x2013__Pisco">
	<g>
		<g>
			<path d="M66.255,160.735c0,20.334-20.5,31-20.5,31s20.5,9.5,20.5,30.5"/>
			<path d="M66.255,224.235c-1.104,0-2-0.896-2-2c0-19.497-19.146-28.596-19.341-28.686c-0.691-0.32-1.143-1.007-1.159-1.771
				c-0.02-0.763,0.398-1.468,1.076-1.817c0.19-0.104,19.423-10.379,19.423-29.229c0-1.104,0.896-2,2-2s2,0.896,2,2
				c0,16.588-12.549,26.938-18.521,30.922c6.021,3.722,18.521,13.495,18.521,30.578C68.255,223.339,67.359,224.235,66.255,224.235z"
				/>
		</g>
		<g>
			<path fill="none" stroke="#000000" stroke-width="4" stroke-linecap="round" stroke-linejoin="round" stroke-miterlimit="10" d="
				M184.005,230.304"/>
		</g>
		<g>
			<path d="M301.632,89.735c0-61-40.938-71.5-123.103-71.5c-62,0-123.18,0.5-123.18,0.5s10.657,19.5,10.657,30s0,257.334,0,267
				c0,9.667-10.256,30.722-10.256,30.722h82.5c0,0-11.244-21.222-11.244-31.222s0-72,0-102.5
				C220.01,192.235,301.632,182.235,301.632,89.735z M178.382,150.735c-30.41,6.326-51.371,10-51.371,10v-92.28
				c0,0,31.743,0,50.243,0c42.5,0,52.938,10.341,52.938,41.141C230.193,140.095,209.632,144.235,178.382,150.735z"/>
			<path d="M138.254,348.454h-82.5c-0.688,0-1.33-0.355-1.695-0.939c-0.366-0.585-0.404-1.316-0.103-1.937
				c0.101-0.206,10.054-20.748,10.054-29.846v-267c0-9.875-10.309-28.85-10.412-29.041c-0.338-0.614-0.326-1.363,0.029-1.973
				c0.354-0.606,1.005-0.981,1.708-0.987c0.61-0.005,61.896-0.5,123.194-0.5c47.646,0,74.661,3.792,93.257,13.086
				c21.728,10.861,31.846,30.061,31.846,60.414c0,40.018-14.755,67.45-46.438,86.339c-28.271,16.856-67.562,25.266-109.156,34.162
				c-6.271,1.345-12.622,2.7-19.029,4.106v100.893c0,9.396,10.901,30.074,11.012,30.282c0.329,0.62,0.31,1.366-0.055,1.968
				C139.606,348.087,138.955,348.454,138.254,348.454z M58.902,344.454h76.087c-3.118-6.282-9.979-21.026-9.979-29.222v-102.5
				c0-0.938,0.653-1.751,1.569-1.953c6.946-1.528,13.832-3.004,20.623-4.454c41.265-8.829,80.24-17.171,107.944-33.688
				c30.352-18.095,44.483-44.438,44.483-82.903c0-59.1-39.05-69.5-121.103-69.5c-53.194,0-106.383,0.373-119.893,0.478
				c3.012,5.955,9.371,19.536,9.371,28.022v267C68.009,323.653,61.738,338.254,58.902,344.454z M127.009,162.735
				c-0.467,0-0.923-0.164-1.285-0.469c-0.453-0.38-0.715-0.938-0.715-1.531v-92.28c0-1.104,0.896-2,2-2h50.244
				c42.104,0,54.938,10.08,54.938,43.141c0.001,31.991-22.226,36.614-52.985,43.012l-0.416,0.086
				c-30.096,6.263-51.226,9.978-51.436,10.015C127.24,162.725,127.124,162.735,127.009,162.735z M129.009,70.454v87.892
				c6.29-1.135,24.705-4.523,48.966-9.569l0.416-0.086c31.057-6.459,49.803-10.355,49.802-39.096
				c0-30.728-10.947-39.141-50.938-39.141C177.255,70.454,129.009,70.454,129.009,70.454z"/>
		</g>
	</g>
</g>
<g id="B__x2013__Cachaca" display="none">
	<g display="inline">
		<g>
			<path d="M205.078,346.094c-0.022,0-0.048,0-0.069,0l-144.871-0.5c-11.02-0.038-19.932-8.981-19.932-20v-286.5
				c0-11.011,8.899-19.951,19.912-20l113.529-0.5c0.054,0,0.104,0,0.157,0c11.512,0,32.604,0.036,51.675,7.973
				c26.196,10.903,40.623,33.464,40.623,63.527c0,23.964-3.962,42.219-8.812,55.589c12.859,4.335,23.306,11.812,31.215,22.371
				c12.74,17.012,18.675,41.175,18.675,76.04c0,29.182-7.567,68.297-43.62,88.923C240.702,346.094,215.738,346.094,205.078,346.094z
				 M80.205,305.663l124.916,0.431c8.128,0,24.971-0.014,38.574-7.798c15.804-9.04,23.483-26.771,23.483-54.202
				c0-58.152-18.005-62.885-39.756-62.885c-0.607,0-1.186-0.022-1.754-0.06c-8.149-0.137-15.803-4.848-18.716-12.481
				c-2.961-7.766-1.224-16.161,4.96-21.672c5.031-5.766,14.188-24.657,14.188-56.902c0-19.95-8.566-31.5-52.367-31.5l-93.529,0.412
				L80.205,305.663L80.205,305.663z"/>
		</g>
	</g>
</g>
<g id="P__x2013__Cachaca" display="none">
	<g display="inline">
		<g>
			<path d="M65.196,346.135c-11.046,0-20-8.954-20-20V38.85c0-11.03,8.931-19.978,19.959-20l144.329-0.296
				c32.119,0,54.296,7.175,69.831,22.58c15.395,15.263,22.875,38.032,22.875,69.608c0,32.007-7.146,54.117-22.483,69.591
				c-15.214,15.343-37.952,22.802-69.517,22.802h-82.994c-11.046,0-20-8.954-20-20s8.954-20,20-20h82.994
				c20.349,0,33.794-3.587,41.109-10.966c7.328-7.393,10.891-20.94,10.891-41.427c0-20.36-3.609-33.842-11.04-41.205
				c-7.453-7.394-21.066-10.983-41.625-10.983L85.196,58.809v267.326C85.196,337.181,76.242,346.135,65.196,346.135z"/>
		</g>
	</g>
</g>
<g id="B__x2013__Brandy" display="none">
	<g display="inline">
		<g>
			<path d="M244.894,161.86L244.894,161.86c0,0,40.982-10.719,40.982-72.219c0-71.5-70.5-71.281-91.5-71.281c0,0-28.747,10-20.5,10
				c30.5,0,41,25.698,41,61.062c0,52.438-10.583,72.562-31.75,72.438c-20.755-0.122,3.531,10.5,10.75,10.5c41,0,62,31.5,62,72.5
				c0,70.5-21,91.5-62,91.5c-18.418,0,31.5,10,31.5,10c20,0,102.251-9.5,102.251-92.25
				C327.63,193.818,285.414,161.86,244.894,161.86z"/>
		</g>
		<g>
			<rect x="60.759" y="18.328" width="72" height="328"/>
		</g>
		<g>
			<polygon points="214.379,28.328 19.759,28.328 19.759,18.328 195.379,18.328 			"/>
		</g>
		<g>
			<polygon points="224.379,346.328 19.759,346.328 19.759,336.328 255.379,336.328 			"/>
		</g>
		<g>
			<polygon points="224.848,172.328 61.379,172.328 61.505,161.822 224.879,161.836 			"/>
		</g>
		<g>
			<path d="M244.894,161.86L244.894,161.86c0,0,40.982-10.719,40.982-72.219c0-71.5-70.5-71.281-91.5-71.281c0,0-28.747,10-20.5,10
				c30.5,0,41,25.698,41,61.062c0,52.438-10.583,72.562-31.75,72.438c-20.755-0.122,3.531,10.5,10.75,10.5c41,0,62,31.5,62,72.5
				c0,70.5-21,91.5-62,91.5c-18.418,0,31.5,10,31.5,10c20,0,102.251-9.5,102.251-92.25
				C327.63,193.818,285.414,161.86,244.894,161.86z"/>
		</g>
		<g>
			<rect x="60.759" y="18.328" width="72" height="328"/>
		</g>
		<g>
			<polygon points="214.379,28.328 19.759,28.328 19.759,18.328 195.379,18.328 			"/>
		</g>
		<g>
			<polygon points="224.379,346.328 19.759,346.328 19.759,336.328 255.379,336.328 			"/>
		</g>
		<g>
			<polygon points="224.848,172.328 61.379,172.328 61.505,161.822 224.879,161.836 			"/>
		</g>
	</g>
</g>
<g id="P__x2013__Brandy" display="none">
	<g display="inline">
		<g>
			<path d="M305.191,99.875c0-66.284-60.584-79.729-86.152-81.334l-0.348-0.197h-63h-72H42.196v10h41v308h-41v10H83.69h72h40.506
				v-10h-41v-144h62.966l0.649-0.212C258.634,189.233,305.191,158.35,305.191,99.875z M155.196,28.344h37.994
				c30.5,0,41,25.714,41,61.078c0,52.219-10.989,92.229-31.982,92.438h-47.012L155.196,28.344L155.196,28.344z"/>
		</g>
		<g>
			<path d="M305.191,99.875c0-66.284-60.584-79.729-86.152-81.334l-0.348-0.197h-63h-72H42.196v10h41v308h-41v10H83.69h72h40.506
				v-10h-41v-144h62.966l0.649-0.212C258.634,189.233,305.191,158.35,305.191,99.875z M155.196,28.344h37.994
				c30.5,0,41,25.714,41,61.078c0,52.219-10.989,92.229-31.982,92.438h-47.012L155.196,28.344L155.196,28.344z"/>
		</g>
	</g>
</g>
<g id="B__x2013__Grappa">
	<g>
		<g>
			<path stroke="#000000" stroke-width="5" stroke-miterlimit="10" d="M237.858,346.091H45.807V18.598l10.032,0.033
				c0.99,0.002,99.407,0.32,132.228,0c47.807-0.47,64.54,9.654,74.598,19.613c11.684,11.566,17.359,28.378,17.359,51.387
				c0,30.574-20.497,52.508-62.579,66.854c9.034,11.296,22.377,28.229,35.618,45.95c48.519,64.938,48.519,77.191,48.519,82.425
				C301.58,306.26,301.58,346.091,237.858,346.091z M65.807,326.091h172.051c43.724,0,43.724-19.106,43.724-41.229
				c-0.109-1.93-2.808-14.666-45.009-71.08c-15.778-21.095-31.639-40.979-39.91-51.23c-35.32,8.854-78.897,13.514-130.854,18.203
				L65.807,326.091L65.807,326.091z M65.807,38.66v122.009c55.616-5.037,101.262-10.07,136.349-20.324
				c51.869-15.159,57.868-36.203,57.868-50.714c0-17.396-3.738-29.556-11.436-37.176c-10.103-10.002-28.149-14.141-60.327-13.824
				C161.58,38.89,91.886,38.731,65.807,38.66z"/>
		</g>
	</g>
</g>
<g id="P__x2013__Grappa">
	<g>
		<g>
			<path stroke="#000000" stroke-width="5" stroke-miterlimit="10" d="M76.926,346.339h-20V18.349l10.021,0.021
				c0.792,0.001,79.589,0.163,112.468,0.163c37.636,0,65.053,7.765,83.816,23.734c18.067,15.379,27.229,38.121,27.229,67.592
				c0,17.627-6.963,33.117-20.693,46.039c-11.842,11.146-28.933,20.405-50.797,27.528c-35.011,11.404-83.958,17.723-142.043,18.37
				L76.926,346.339L76.926,346.339z M76.926,38.39v143.408c55.965-0.633,102.773-6.611,135.849-17.385
				c38.278-12.472,57.688-30.823,57.688-54.554c0-30.618-9.438-71.326-91.048-71.326C153.558,38.533,99.341,38.433,76.926,38.39z"/>
		</g>
	</g>
</g>
<g id="B__x2013__Tequila" display="none">
	<g display="inline">
		<g>
			<path fill="none" d="M50.441,79.11c0-41,40.002-40.5,40.002-40.5c20.5,0,42.503,10,42.503,41c0,20.5,0,184.5,0,205
				c0,30.5-22.753,41-43.253,41c0,0-39.251-0.5-39.251-41.5"/>
			<path d="M89.693,345.61l-0.255-0.002c-2.453-0.028-15.372-0.551-28.807-7.735c-19.469-10.416-30.189-29.512-30.189-53.763
				c0-11.046,8.954-20,20-20s20,8.954,20,20c0,11.653,4.432,15.771,8.29,18.06c4.869,2.883,10.353,3.375,11.328,3.438
				c6.729-0.062,12.778-1.812,16.646-4.829c1.543-1.204,6.24-4.868,6.24-16.169v-205c0-6.282,0-21-22.503-21h-0.037
				c-1.778,0.033-7.253,0.657-11.769,3.157c-3.816,2.113-8.197,5.994-8.197,17.343c0,11.046-8.954,20-20,20s-20-8.954-20-20
				c0-22.185,9.033-35.762,16.61-43.246C64.006,19.12,87.071,18.584,90.512,18.61c16.106,0.016,30.378,4.572,41.272,13.188
				c9.651,7.632,21.158,22.123,21.158,47.812v205c0,25.479-11.766,40.005-21.636,47.706
				C120.322,340.888,105.542,345.61,89.693,345.61z"/>
		</g>
		<g>
			<path d="M253.691,346.079h-79.75c-11.823,0-26.541,0-39.323-8.572c-14.587-9.778-21.677-26.966-21.677-52.545
				c0-11.046,8.955-20,20-20c11.046,0,20,8.954,20,20c0,13.188,2.584,18.406,3.95,19.322c2.678,1.795,10.983,1.795,17.05,1.795
				h79.75c13.179,0,23.256-2.354,23.256-31.972v-41c0-8.375,0-21.028-31.506-21.028h-20v-40c4.115,0,9.872-0.81,13.924-4.652
				c4.962-4.707,7.582-13.904,7.582-26.598V79.61c0-9.019-12.618-20.528-22.506-20.528h-50.5c-9.42,0-21,11.448-21,20.766
				c0,11.046-8.954,20-20,20c-11.045,0-20-8.954-20-20c0-15.052,6.825-30.458,18.727-42.267c11.848-11.76,27.255-18.5,42.273-18.5
				h50.5c32.129,0,62.506,29.417,62.506,60.528v61.222c0,14.191-2.306,26.483-6.88,36.771c5.271,1.977,10.021,4.479,14.229,7.499
				c10.333,7.419,22.648,21.771,22.648,48.012v41C316.946,336.729,277.315,346.079,253.691,346.079z"/>
		</g>
		<g>
			<path d="M142.938,212.11c-10.987,0-19.932-8.874-19.997-19.879c-0.065-11.045,8.833-20.054,19.878-20.121c0,0,82.583,0,82.624,0
				c10.989,0,19.932,8.875,19.997,19.879c0.065,11.048-8.833,20.057-19.879,20.121h-82.5
				C143.021,212.11,142.979,212.11,142.938,212.11z"/>
		</g>
		<g>
			<path fill="none" d="M92.191,191.86c41,0,40.5-40,40.5-40"/>
			<path d="M92.191,211.86c-11.046,0-20-8.954-20-20s8.954-20,20-20c11.352,0,15.229-4.381,17.345-8.193
				c2.517-4.545,3.133-10.062,3.156-11.806l0.001,0.25l39.997-0.5c0.033,2.646-0.17,26.345-17.252,43.642
				C127.953,202.827,114.376,211.86,92.191,211.86z"/>
		</g>
		<g>
			<path fill="none" d="M92.191,191.86c41,0,40.5,40,40.5,40"/>
			<path d="M152.689,232.11l-39.997-0.5l-0.001,0.249c-0.023-1.738-0.642-7.257-3.156-11.803c-2.113-3.816-5.993-8.196-17.345-8.196
				c-11.046,0-20-8.954-20-20s8.954-20,20-20c22.187,0,35.765,9.033,43.247,16.611C152.519,205.767,152.722,229.464,152.689,232.11z
				"/>
		</g>
	</g>
</g>
<g id="P__x2013__Tequila" display="none">
	<g display="inline">
		<g>
			<path fill="none" d="M61.317,79.58c0-41,39.877-40.5,39.877-40.5c20.5,0,42.378,10,42.378,41c0,20.5,0,184.5,0,205
				c0,30.5-22.628,41-43.128,41"/>
			<path d="M99.821,346.08c-11.046,0-20-8.954-20-20s8.954-20,20-20c23.13,0,23.13-15.809,23.13-21v-205c0-6.284,0-21-22.38-21
				h-0.032c-1.77,0.03-7.204,0.653-11.688,3.146c-3.798,2.111-8.157,5.991-8.157,17.354c0,11.046-8.954,20-20,20s-20-8.954-20-20
				c0-22.212,9.036-35.801,16.616-43.283c16.922-16.712,39.938-17.213,43.333-17.217c16.107,0.013,30.365,4.581,41.237,13.209
				c9.609,7.628,21.066,22.109,21.066,47.791v205c0,25.464-11.716,39.982-21.544,47.683
				C130.439,341.35,115.671,346.08,99.821,346.08z"/>
		</g>
		<g>
			<path fill="none" d="M102.444,192.33c41,0,40.5-40,40.5-40"/>
			<path d="M102.444,212.33c-11.046,0-20-8.954-20-20s8.954-20,20-20c11.352,0,15.229-4.384,17.345-8.196
				c2.518-4.545,3.133-10.062,3.156-11.803l0.001,0.25l39.997-0.5c0.033,2.645-0.17,26.342-17.252,43.639
				C138.206,203.297,124.629,212.33,102.444,212.33z"/>
		</g>
		<g>
			<path fill="none" d="M102.444,192.33c41,0,40.5,40,40.5,40"/>
			<path d="M162.942,232.58l-39.997-0.5l-0.001,0.249c-0.023-1.741-0.641-7.26-3.156-11.806c-2.113-3.813-5.993-8.193-17.345-8.193
				c-11.046,0-20-8.954-20-20s8.954-20,20-20c22.187,0,35.765,9.03,43.247,16.608C162.772,206.237,162.975,229.934,162.942,232.58z"
				/>
		</g>
		<g>
			<path d="M204.694,212.298H141.95c-11.048,0-20-8.954-20-20s8.952-20,20-20h62.742c7.279,0,25.15-1.729,40.686-8.26
				c20.814-8.759,20.814-18.987,20.814-22.352c0-13.208,0.222-33.951,0.366-47.677c0.073-7.066,0.134-12.648,0.134-14.378
				c0-9.403-11.508-20.955-20.913-21.026c-2.744,0.032-41.825,0.485-61.587,0.485c-9.476,0-21.123,11.636-21.123,21.103
				c0,11.049-8.952,20-20,20c-11.046,0-20-8.951-20-20c0-31.405,29.705-61.103,61.123-61.103c20.147,0,60.854-0.479,61.265-0.484
				l0.235-0.001c31.354,0,61,29.658,61,61.027c0,1.942-0.058,7.336-0.137,14.802c-0.146,13.645-0.363,34.256-0.363,47.253
				c0,25.9-16.091,46.934-45.309,59.223C240.901,209.316,218.124,212.298,204.694,212.298z"/>
		</g>
		<g>
			<path fill="none" d="M181.944,326.08c0,0-39.25-0.5-39.25-41.5"/>
			<path d="M181.948,346.08c-0.087,0-0.173-0.001-0.26-0.002c-2.453-0.031-15.372-0.554-28.806-7.738
				c-19.468-10.416-30.189-29.509-30.189-53.76c0-11.049,8.954-20,20-20s20,8.951,20,20c0,12.092,4.844,16.23,9.062,18.487
				c4.927,2.639,10.396,3.014,10.443,3.015c11.047,0.141,19.886,9.208,19.743,20.253C201.802,337.293,192.875,346.08,181.948,346.08
				z"/>
		</g>
	</g>
</g>
<g id="B_-_Mezcal" display="none">
	<g display="inline">
		<g>
			<path d="M81.817,345.844c-0.015,0-0.027,0-0.044,0c-5.521-0.024-9.979-4.521-9.957-10.043l0.623-144
				c0.023-5.506,4.494-9.957,10-9.957h123.5c25.952,0,44.787-5.902,55.982-17.542c9.604-9.985,14.271-24.517,14.271-44.427v-10
				c0-24.534-4.896-41.842-14.963-52.912c-11.089-12.192-29.503-18.119-56.293-18.119H40.194c-5.521,0-10-4.477-10-10
				s4.479-10,10-10h164.744c32.742,0,55.995,8.067,71.088,24.662c13.571,14.921,20.168,36.63,20.168,66.369v10
				c0,24.979-6.682,44.592-19.856,58.291c-15.11,15.712-38.797,23.678-70.396,23.678H92.396l-0.58,134.043
				C91.792,341.394,87.319,345.844,81.817,345.844z"/>
		</g>
		<g>
			<path d="M204.939,345.844H40.194c-5.521,0-10-4.479-10-10c0-5.522,4.479-10,10-10h164.744c54.317,0,92.255-29.8,92.255-72.469
				v-10.5c0-23.638-7.039-43.626-20.354-57.812c-14.262-15.189-35.667-23.222-61.898-23.222h-133c-5.494,0-9.959-4.433-10-9.926
				L71.066,33.25c-0.041-5.523,4.403-10.033,9.928-10.073c0.023,0,0.05,0,0.073,0c5.489,0,9.958,4.429,9.998,9.926l0.802,108.741
				h123.071c31.896,0,58.343,10.212,76.479,29.532c16.859,17.961,25.772,42.685,25.772,71.499v12.9c0,0.407-0.021,0.812-0.071,1.203
				c-0.983,24.759-12.134,47.056-31.642,63.1C264.985,336.935,237.135,345.844,204.939,345.844z"/>
		</g>
		<g>
			<path d="M143.194,161.844c-5.521,0-10-4.477-10-10v-123c0-5.523,4.479-10,10-10c5.522,0,10,4.477,10,10v123
				C153.194,157.367,148.717,161.844,143.194,161.844z"/>
		</g>
		<g>
			<path d="M143.194,345.844c-5.521,0-10-4.479-10-10v-144c0-5.522,4.479-10,10-10c5.522,0,10,4.478,10,10v144
				C153.194,341.365,148.717,345.844,143.194,345.844z"/>
		</g>
		<g>
			<circle cx="224.939" cy="252.875" r="10"/>
		</g>
		<g>
			<path d="M81.817,345.844c-0.015,0-0.027,0-0.044,0c-5.521-0.024-9.979-4.521-9.957-10.043l0.623-144
				c0.023-5.506,4.494-9.957,10-9.957h123.5c25.952,0,44.787-5.902,55.982-17.542c9.604-9.985,14.271-24.517,14.271-44.427v-10
				c0-24.534-4.896-41.842-14.963-52.912c-11.089-12.192-29.503-18.119-56.293-18.119H40.194c-5.521,0-10-4.477-10-10
				s4.479-10,10-10h164.744c32.742,0,55.995,8.067,71.088,24.662c13.571,14.921,20.168,36.63,20.168,66.369v10
				c0,24.979-6.682,44.592-19.856,58.291c-15.11,15.712-38.797,23.678-70.396,23.678H92.396l-0.58,134.043
				C91.792,341.394,87.319,345.844,81.817,345.844z"/>
		</g>
		<g>
			<path d="M204.939,345.844H40.194c-5.521,0-10-4.479-10-10c0-5.522,4.479-10,10-10h164.744c54.317,0,92.255-29.8,92.255-72.469
				v-10.5c0-23.638-7.039-43.626-20.354-57.812c-14.262-15.189-35.667-23.222-61.898-23.222h-133c-5.494,0-9.959-4.433-10-9.926
				L71.066,33.25c-0.041-5.523,4.403-10.033,9.928-10.073c0.023,0,0.05,0,0.073,0c5.489,0,9.958,4.429,9.998,9.926l0.802,108.741
				h123.071c31.896,0,58.343,10.212,76.479,29.532c16.859,17.961,25.772,42.685,25.772,71.499v12.9c0,0.407-0.021,0.812-0.071,1.203
				c-0.983,24.759-12.134,47.056-31.642,63.1C264.985,336.935,237.135,345.844,204.939,345.844z"/>
		</g>
		<g>
			<path d="M143.194,161.844c-5.521,0-10-4.477-10-10v-123c0-5.523,4.479-10,10-10c5.522,0,10,4.477,10,10v123
				C153.194,157.367,148.717,161.844,143.194,161.844z"/>
		</g>
		<g>
			<path d="M143.194,345.844c-5.521,0-10-4.479-10-10v-144c0-5.522,4.479-10,10-10c5.522,0,10,4.478,10,10v144
				C153.194,341.365,148.717,345.844,143.194,345.844z"/>
		</g>
		<g>
			<circle cx="224.939" cy="252.875" r="10"/>
		</g>
	</g>
</g>
<g id="P_-_Mezcal" display="none">
	<g display="inline">
		<g>
			<path d="M87.065,345.844c-0.009,0-0.018,0-0.024,0c-5.522-0.015-9.988-4.503-9.976-10.025l0.373-144
				c0.016-5.514,4.486-9.975,10-9.975h133.5c26.005,0,44.938-5.914,56.271-17.578c9.748-10.034,14.485-24.555,14.485-44.391v-10
				c0-50.452-20.789-71.031-71.756-71.031H45.693c-5.521,0-10-4.477-10-10s4.479-10,10-10h174.244
				c32.761,0,56.085,8.055,71.308,24.626c13.761,14.982,20.448,36.704,20.448,66.405v10c0,24.943-6.775,44.567-20.145,58.328
				c-15.24,15.687-38.997,23.641-70.611,23.641H97.412l-0.349,134.025C97.05,341.384,92.575,345.844,87.065,345.844z"/>
		</g>
		<g>
			<path d="M86.936,161.375c-5.481,0-9.951-4.422-9.998-9.916l-1-118.667c-0.047-5.523,4.395-10.038,9.915-10.084
				c0.028,0,0.06,0,0.086,0c5.482,0,9.951,4.422,9.998,9.916l1,118.667c0.047,5.521-4.394,10.038-9.915,10.084
				C86.993,161.375,86.964,161.375,86.936,161.375z"/>
		</g>
		<g>
			<path d="M179.693,345.844h-123c-5.521,0-10-4.479-10-10c0-5.522,4.479-10,10-10h123c5.521,0,10,4.478,10,10
				C189.693,341.365,185.216,345.844,179.693,345.844z"/>
		</g>
		<g>
			<path d="M148.693,161.844c-5.521,0-10-4.477-10-10v-123c0-5.523,4.479-10,10-10c5.522,0,10,4.477,10,10v123
				C158.693,157.367,154.216,161.844,148.693,161.844z"/>
		</g>
		<g>
			<path d="M152.693,345.844c-5.521,0-10-4.479-10-10v-144c0-5.522,4.479-10,10-10c5.522,0,10,4.478,10,10v144
				C162.693,341.365,158.216,345.844,152.693,345.844z"/>
		</g>
		<g>
			<circle cx="229.938" cy="109.875" r="10"/>
		</g>
		<g>
			<path d="M87.065,345.844c-0.009,0-0.018,0-0.024,0c-5.522-0.015-9.988-4.503-9.976-10.025l0.373-144
				c0.016-5.514,4.486-9.975,10-9.975h133.5c26.005,0,44.938-5.914,56.271-17.578c9.748-10.034,14.485-24.555,14.485-44.391v-10
				c0-50.452-20.789-71.031-71.756-71.031H45.693c-5.521,0-10-4.477-10-10s4.479-10,10-10h174.244
				c32.761,0,56.085,8.055,71.308,24.626c13.761,14.982,20.448,36.704,20.448,66.405v10c0,24.943-6.775,44.567-20.145,58.328
				c-15.24,15.687-38.997,23.641-70.611,23.641H97.412l-0.349,134.025C97.05,341.384,92.575,345.844,87.065,345.844z"/>
		</g>
		<g>
			<path d="M86.936,161.375c-5.481,0-9.951-4.422-9.998-9.916l-1-118.667c-0.047-5.523,4.395-10.038,9.915-10.084
				c0.028,0,0.06,0,0.086,0c5.482,0,9.951,4.422,9.998,9.916l1,118.667c0.047,5.521-4.394,10.038-9.915,10.084
				C86.993,161.375,86.964,161.375,86.936,161.375z"/>
		</g>
		<g>
			<path d="M179.693,345.844h-123c-5.521,0-10-4.479-10-10c0-5.522,4.479-10,10-10h123c5.521,0,10,4.478,10,10
				C189.693,341.365,185.216,345.844,179.693,345.844z"/>
		</g>
		<g>
			<path d="M148.693,161.844c-5.521,0-10-4.477-10-10v-123c0-5.523,4.479-10,10-10c5.522,0,10,4.477,10,10v123
				C158.693,157.367,154.216,161.844,148.693,161.844z"/>
		</g>
		<g>
			<path d="M152.693,345.844c-5.521,0-10-4.479-10-10v-144c0-5.522,4.479-10,10-10c5.522,0,10,4.478,10,10v144
				C162.693,341.365,158.216,345.844,152.693,345.844z"/>
		</g>
		<g>
			<circle cx="229.938" cy="109.875" r="10"/>
		</g>
	</g>
</g>
<g id="B__x2013__Gin">
	<g>
		<g>
			<path stroke="#000000" stroke-width="10" stroke-miterlimit="10" d="M184.193,348.345c-14.05,0-47.729-6.969-62.155-28.511
				c-1.105-1.652-2.08-3.354-2.918-5.104c-15.979,20.593-32.074,33.612-47.927,33.612c-46.579,0-53-40.372-53-84
				c0-50.601,27.642-112.97,72.136-162.771c48.395-54.164,108.667-85.229,165.364-85.229c24.937,0,43.811,4.809,56.097,14.292
				c11.551,8.912,17.403,21.936,17.403,38.708c0,27.469-16.25,53.817-45.825,74.429c12.142,4.046,21.718,10.134,28.576,18.19
				c13.963,16.395,16.374,40.6,7.168,71.941c-9.977,33.971-29.312,63.122-55.923,84.313
				C238.797,337.646,210.742,348.345,184.193,348.345z M121.885,311.09c0.92,2.261,2.078,4.435,3.474,6.519
				c13.528,20.201,45.479,26.736,58.833,26.736c25.276,0,53.161-10.662,76.504-29.252c25.964-20.676,44.834-49.139,54.577-82.312
				c8.802-29.968,6.657-52.922-6.375-68.224c-7.583-8.903-18.235-14.489-29.843-17.884c-25.244,16.388-57.329,26.955-82.672,27.167
				c-9.923,20.89-20.188,42.495-30.67,63.08c4.367-1.192,8.641-1.983,12.638-2.408c17.694-1.887,32.677,2.742,39.101,12.074
				c3.571,5.191,6.306,14.384-0.978,28.666c-0.502,0.981-1.706,1.372-2.688,0.874c-0.984-0.502-1.375-1.707-0.874-2.69
				c5.056-9.917,5.484-18.417,1.242-24.582c-5.588-8.12-19.144-12.093-35.38-10.364c-5.584,0.597-10.747,1.695-15.497,3.189
				C149.751,267.94,135.873,292.298,121.885,311.09z M255.693,20.345c-55.562,0-114.748,30.579-162.384,83.895
				c-43.866,49.1-71.116,110.446-71.116,160.105c0,57.57,13.738,80,49,80c14.85,0,30.48-13.318,46.137-33.999
				c-3.639-10.723-2.636-23.041,3.015-36.763c7.546-18.323,23.873-29.425,39.979-34.995c11.024-21.405,21.687-43.802,31.688-64.86
				c-14.896-1.011-16.58-8.312-16.729-10.667c-0.51-8.095,10.691-18.138,32.513-22.356c23.488-48.492,42.721-83.356,58.398-83.356
				c1.104,0,2,0.896,2,2s-0.896,2-2,2c-13.094,0-32.316,34.956-53.547,78.542c0.592-0.085,1.189-0.166,1.796-0.243
				c13.365-1.688,33.368-3.025,52.754,0.196c3.944,0.656,7.697,1.472,11.254,2.445c0.145-0.099,0.286-0.192,0.432-0.288
				c29.863-20.065,46.312-45.867,46.312-72.652C325.193,36.831,301.81,20.345,255.693,20.345z M157.674,243.696
				c-17.975,7.314-29.086,20.369-33.632,31.41c-4.771,11.582-6.007,22.025-3.721,31.195
				C132.919,288.924,145.501,267.022,157.674,243.696z M205.598,145.244c-18.395,4.188-26.645,12.479-26.324,17.562
				c0.253,4.013,5.918,6.692,14.598,7.005C197.89,161.351,201.8,153.13,205.598,145.244z M210.519,144.268
				c-4.015,8.294-8.099,16.87-12.216,25.537c23.271-0.683,52.001-10.05,75.463-24.517c-21.953-5.12-46.071-3.287-58.822-1.678
				C213.417,143.806,211.942,144.025,210.519,144.268z"/>
		</g>
		<g>
			<path stroke="#000000" stroke-width="10" stroke-miterlimit="10" d="M138.154,172.903c-1.22,0-2.419-0.125-3.595-0.377
				c-8.408-1.803-16.596-10.998-14.354-31.397c3.314-30.209,29.707-54.283,76.318-69.62c34.846-11.464,69.179-14.131,69.521-14.157
				c1.107-0.074,2.062,0.744,2.145,1.846c0.083,1.104-0.743,2.062-1.845,2.146c-0.34,0.023-34.248,2.664-68.635,13.989
				c-31.359,10.326-69.572,30.201-73.526,66.232c-1.63,14.854,2.668,25.223,11.217,27.053c0.896,0.191,1.823,0.287,2.774,0.287
				c10.903,0.002,25.178-12.597,33.616-38.674c0.34-1.051,1.466-1.626,2.52-1.287c1.051,0.341,1.627,1.471,1.287,2.521
				c-4.559,14.082-11.137,25.427-19.024,32.81C150.533,169.922,144.119,172.903,138.154,172.903z"/>
		</g>
	</g>
</g>
<g id="P__x2013__Gin">
	<g>
		<g>
			<path stroke="#000000" stroke-width="10" stroke-miterlimit="10" d="M71.193,348.344c-46.579,0-53-40.372-53-84
				c0-50.601,27.642-112.97,72.136-162.771c48.395-54.162,108.667-85.229,165.364-85.229c24.937,0,43.811,4.809,56.097,14.292
				c11.551,8.912,17.403,21.936,17.403,38.708c0,28.16-17.076,55.141-48.083,75.973c-23.476,15.771-53.383,26.465-78.28,28.263
				C167.915,254.469,124.935,348.344,71.193,348.344z M255.693,20.344c-55.562,0-114.748,30.579-162.384,83.895
				c-43.866,49.1-71.116,110.446-71.116,160.105c0,57.57,13.738,80,49,80c50.815,0,92.877-91.148,127.182-170.541
				c-0.934,0.027-1.854,0.041-2.77,0.041c-8.286,0-13.938-2.201-15.912-6.196c-1.337-2.707-0.816-5.839,1.461-8.818
				c4.229-5.531,14.204-10.256,28.535-11.282c24.351-56.234,40.736-90.201,56.504-90.201c1.104,0,2,0.896,2,2s-0.896,2-2,2
				c-13.721,0-32.218,40.108-52.067,86.006c6.43-0.105,13.614,0.494,21.454,2.031c1.084,0.212,1.79,1.263,1.576,2.347
				c-0.213,1.083-1.259,1.796-2.348,1.578c-8.47-1.66-15.961-2.173-22.432-1.914c-1.414,3.28-2.835,6.584-4.263,9.9
				c-1.155,2.688-2.319,5.396-3.495,8.126c23.798-2.163,51.971-12.448,74.26-27.423c29.863-20.065,46.312-45.867,46.312-72.652
				C325.193,36.83,301.81,20.344,255.693,20.344z M207.888,151.71c-12.569,1.29-20.558,5.621-23.558,9.546
				c-0.926,1.209-1.856,2.992-1.055,4.619c1.229,2.482,5.837,3.969,12.326,3.969c1.483,0,2.993-0.037,4.523-0.111
				c1.45-3.362,2.891-6.711,4.312-10.02C205.608,157,206.757,154.331,207.888,151.71z"/>
		</g>
		<g>
			<path stroke="#000000" stroke-width="10" stroke-miterlimit="10" d="M81.193,286.344c-1.104,0-2-0.896-2-2
				c0-32.341,23.859-65.161,46.935-96.9c20.974-28.85,42.66-58.681,45.578-87.302c5.244-51.449-20.725-63.731-36.668-66.479
				C106.18,28.691,68.554,47.62,63.139,69.816c-0.263,1.072-1.342,1.73-2.417,1.472c-1.073-0.265-1.729-1.347-1.47-2.417
				c5.949-24.396,45.252-44.521,76.463-39.149c13.428,2.311,24.195,9.159,31.143,19.805c8.053,12.339,11.021,29.505,8.828,51.021
				c-3.025,29.695-25.036,59.971-46.32,89.25c-22.696,31.222-46.169,63.507-46.169,94.548
				C83.193,285.448,82.297,286.344,81.193,286.344z"/>
		</g>
	</g>
</g>
<g id="B_-_Whysky" display="none">
	<g display="inline">
		<path d="M225.455,346.844H19.431l0.023-0.523c0.005-0.104,0.501-10.843,0.501-21.21v-0.484l0.485-0.016
			c0.405-0.011,40.518-1.379,40.518-30.231V68.88c0-29.922-38.784-30.269-40.437-30.269h-0.486l-0.08-0.484
			c-0.47-18.734-0.5-19.706-0.501-19.755l-0.021-0.521l0.521-0.003h174.312c10.872,0,33.493,0,53.813,9.025
			c25.132,11.158,37.874,32.29,37.874,62.799c0,46.301-32.608,75.438-39.104,80.774c40.114,0.771,81.102,31.592,81.102,82.665
			c0,31.964-12.393,57.562-35.838,74.025C274.283,339.661,249.985,346.844,225.455,346.844z M20.478,345.844h204.979
			c24.329,0,48.417-7.117,66.088-19.525c23.497-16.502,35.41-41.133,35.41-73.208c0-40.09-30.488-81.603-81.514-81.68l-1.505-0.003
			l1.207-0.898c0.397-0.296,39.812-30.216,39.812-80.858c0-30.078-12.543-50.899-37.279-61.885
			c-20.128-8.939-42.605-8.939-53.408-8.939H20.469c0.064,2.414,0.312,12.293,0.476,18.771c4.922,0.095,41.017,1.803,41.017,31.261
			v225.5c0,28.059-36.341,30.958-41.003,31.212C20.943,334.521,20.575,343.602,20.478,345.844z"/>
		<path d="M205.622,325.844h-93.669l0.504-134h92.827c23.903,0,39.641,3.544,51.02,11.49c13.896,9.706,20.651,26.131,20.651,50.213
			C276.955,300.168,251.622,325.844,205.622,325.844z M112.957,324.844h92.665c45.354,0,70.333-25.32,70.333-71.297
			c0-53.353-33.968-60.703-70.671-60.703h-91.831L112.957,324.844z"/>
		<g>
			<g>
				<path d="M19.955,18.344L19.955,18.344L19.955,18.344z"/>
				<path d="M245.442,170.931c0,0,40.015-29.763,40.015-81.263c0-71.5-70.5-71.324-91.5-71.324s-174,0-174,0
					c0,0.006,0.018,0.407,0.502,19.766c0,0,41.003-0.378,41.003,30.769c0,41,0,185,0,225.5c0,29.688-41.003,30.731-41.003,30.731
					c0,10.5-0.502,21.234-0.502,21.234s185.5,0,205.5,0c41,0,101.998-21.233,101.998-93.233
					C327.453,202.111,286.455,170.993,245.442,170.931z M112.46,38.344h52.161c31.166,0,70.333,0,70.333,51.5s-20.5,81.5-20.5,81.5
					H112.46V38.344z M205.622,325.344c-21.167,0-93.167,0-93.167,0l0.5-133c0,0,11.329,0,92.329,0c40.393,0,71.171,10,71.171,61.203
					C276.455,305.344,245.725,325.344,205.622,325.344z"/>
			</g>
			<path d="M214.719,171.844H111.96v-134h52.661c31.559,0,70.833,0,70.833,52c0,51.062-20.383,81.479-20.587,81.782L214.719,171.844
				z M112.96,170.844h101.226c1.826-2.818,20.271-32.532,20.271-81c0-51-38.723-51-69.833-51H112.96V170.844z"/>
		</g>
	</g>
</g>
<g id="P_-_Whysky" display="none">
	<g display="inline">
		<g>
			<path d="M206.464,18.344c-10.256,0-52.23,0-92.5,0h-42c-23.482,0-40.5,0-40.5,0s-0.255-0.234,0.245,19.766
				c0,0,33.745-0.352,39.745,22.86v233.905c0,30.488-41,30.5-41,30.5v20.969h123v-20.969c0,0-39.823-0.942-41.206-28.999
				l0.559-82.084c12.896,3.774,50.944,7.583,71.094,7.583c92,0,133.032-40.269,133.032-102.269
				C316.932,48.11,256.964,18.344,206.464,18.344z M112.964,195.11l-0.647-156.767h82.147c41.5,0,81.243,20.883,81.243,76.361
				C275.708,233.227,112.964,195.11,112.964,195.11z"/>
			<path d="M153.954,346.844h-124v-21.969h0.5c0.403,0,40.5-0.363,40.5-30V61.034C65.165,38.865,33.156,38.61,31.795,38.61h-0.486
				l-0.1-0.484c-0.493-19.729-0.287-19.941-0.104-20.127l0.146-0.151h0.212c0.089,0,17.077,0,40.5,0h134.5
				c53.445,0,110.969,31.846,110.969,101.765c0,32.118-10.833,57.274-32.199,74.771c-22.688,18.577-56.778,27.996-101.333,27.996
				c-19.464,0-56.69-3.574-70.598-7.422l-0.554,81.427c1.343,27.238,40.322,28.486,40.718,28.495l0.488,0.012V346.844
				L153.954,346.844z M30.954,345.844h122v-19.99c-4.598-0.24-39.899-2.962-41.206-29.453l0.562-82.771l0.636,0.187
				c13.057,3.823,51.664,7.562,70.953,7.562c44.314,0,78.196-9.346,100.699-27.771c21.123-17.297,31.833-42.189,31.833-73.997
				c0-48.528-34.412-100.765-109.969-100.765H31.921c-0.04,1.062-0.066,4.903,0.274,18.771c4.401,0.089,34.119,1.479,39.741,23.229
				l0.018,0.125v233.905c0,28.791-36.284,30.847-41,30.986L30.954,345.844L30.954,345.844z M168.249,201.45
				c-30.064,0-55.148-5.798-55.398-5.854l-0.385-0.091l-0.001-0.396L111.816,37.84h82.649c15.85,0,38.517,3.034,56.497,17.486
				c16.752,13.464,25.246,33.438,25.246,59.375c0,32.438-12.205,56.191-36.277,70.598
				C222.023,196.018,197.906,201.45,168.249,201.45z M113.463,194.71c3.27,0.727,26.869,5.74,54.786,5.74
				c29.474,0,53.417-5.388,71.167-16.009c23.75-14.212,35.792-37.675,35.792-69.737c0-25.616-8.368-45.33-24.872-58.598
				c-17.755-14.27-40.185-17.266-55.871-17.266h-81.646L113.463,194.71z"/>
		</g>
	</g>
</g>
<g id="B_-_Rum" display="none">
	<g display="inline">
		<g>
			<path d="M207.949,341.002c0,0,0-296.188,0-305.072c0-8.888,5-18.241,5-8.888s0,300.842,0,306.83c0,5.983,5.75,9.817,5.75,9.817
				L207.949,341.002z"/>
			<path d="M218.699,344.692c-0.08,0-0.162-0.01-0.243-0.027l-10.75-2.689c-0.443-0.111-0.757-0.511-0.757-0.97V35.93
				c0-5.438,2.22-13.774,4.953-13.774c2.047,0,2.047,3.427,2.047,4.889v306.83c0,4.985,4.497,8.411,5.211,8.923
				c0.331,0.162,0.56,0.503,0.56,0.896c0,0.556-0.447,1-1,1C218.714,344.692,218.706,344.692,218.699,344.692z M208.949,340.222
				l6.187,1.547c-1.578-1.844-3.187-4.545-3.187-7.896V27.042c0-1.404-0.117-2.18-0.225-2.588
				c-1.035,1.354-2.775,6.265-2.775,11.477V340.222z"/>
		</g>
		<g>
			<path d="M318.747,321.446c0,0-2.108-9.071-2.108-20c0-10.5-0.5-61.497-0.5-103c0-10-21.5-32.5-52.5-32.5
				c-21,0-42.468,2.932-52.407,10.002c21.283-2.604,53.721-7.066,53.721,24.33c0,19.168,0,90.668,0,111.418
				c0,5.236-20.405,18.25-30.905,18.25c-41-10-80.478-10.5-102.828-10.5c-51.25,0-82.601,21-82.601,41.5
				c31-10,166.417,7.847,175.043-0.5c10.5-10.153,27.487-19.5,51.987-28.5S318.747,321.446,318.747,321.446z"/>
			<path d="M204.972,363.742C204.971,363.742,204.972,363.742,204.972,363.742c-13.265,0-32.201-1.07-52.25-2.204
				c-23.745-1.346-48.3-2.73-68.632-2.73c-17.218,0-28.722,1.011-35.168,3.091c-0.303,0.102-0.637,0.045-0.896-0.144
				c-0.258-0.188-0.411-0.489-0.411-0.812c0-20.891,31.271-42.5,83.603-42.5c17.908,0,59.821,0,102.946,10.499
				c10.511-0.096,29.787-13.075,29.787-17.249V200.278c0-17.169-9.701-25.166-30.53-25.166c-7.167,0-14.564,0.908-21.093,1.709
				l-0.977,0.12c-0.438,0.059-0.888-0.204-1.055-0.631c-0.165-0.427-0.021-0.911,0.354-1.177
				c4.308-3.063,18.086-10.188,52.987-10.188c18.608,0,32.091,7.955,38.472,12.697c8.989,6.681,15.028,15.041,15.028,20.803
				c0,27.61,0.223,59.57,0.369,80.722c0.073,10.894,0.131,18.764,0.131,22.278c0,10.678,2.062,19.687,2.085,19.773
				c0.063,0.283,0.006,0.581-0.166,0.816c-0.172,0.231-0.438,0.384-0.729,0.404c-0.185,0.018-18.764,1.602-42.835,10.441
				c-24.306,8.929-41.195,18.179-51.641,28.28C223.114,362.365,219.788,363.742,204.972,363.742z M84.091,356.807
				c20.389,0,44.972,1.39,68.744,2.733c20.021,1.132,38.931,2.198,52.137,2.198c13.148,0,17.042-1.096,17.991-2.015
				c10.646-10.3,27.77-19.693,52.341-28.72c20.954-7.698,37.826-9.955,42.238-10.444c-0.558-2.771-1.903-10.405-1.903-19.117
				c0-3.511-0.058-11.378-0.131-22.268c-0.146-21.151-0.369-53.115-0.369-80.732c0-9.085-20.525-31.5-51.5-31.5
				c-20.528,0-37.761,2.729-47.657,7.418c5.56-0.652,11.557-1.252,17.438-1.252c21.891,0,32.53,8.889,32.53,27.166v111.418
				c0,6.297-21.471,19.25-31.905,19.25c-0.08,0-0.158-0.01-0.236-0.025c-42.934-10.475-84.739-10.475-102.592-10.475
				c-49.921,0-80.208,19.669-81.554,39.146C56.495,357.719,67.788,356.807,84.091,356.807z"/>
		</g>
		<g>
			<path d="M28.638,52.946c26.096-12.062,89.494-0.048,113.396-10.088c10.104-4.246,20.104-40.912,20.104-40.912s-31.25,10-61.75,10
				C49.138,11.946,28.638,32.446,28.638,52.946z"/>
			<path d="M28.638,53.946c-0.188,0-0.375-0.053-0.539-0.155c-0.288-0.187-0.461-0.501-0.461-0.845
				c0-11.358,6.072-21.667,17.102-29.02c12.738-8.492,31.981-12.98,55.648-12.98c29.985,0,61.134-9.853,61.444-9.95
				c0.351-0.111,0.729-0.023,0.996,0.229c0.266,0.253,0.368,0.631,0.271,0.985c-0.414,1.516-10.248,37.187-20.683,41.568
				c-9.417,3.956-24.645,4.501-39.694,4.501c-4.438,0-9.085-0.053-13.578-0.104c-4.579-0.052-9.312-0.106-13.924-0.106
				c-17.479,0-35.173,0.701-46.167,5.784C28.924,53.915,28.78,53.946,28.638,53.946z M160.682,3.432
				c-7.049,2.079-34.094,9.514-60.294,9.514c-23.271,0-42.132,4.373-54.539,12.646c-9.948,6.632-15.644,15.75-16.17,25.812
				c11.389-4.669,28.577-5.333,45.545-5.333c4.622,0,9.361,0.057,13.946,0.106c4.487,0.051,9.127,0.104,13.556,0.104
				c14.842,0,29.831-0.523,38.92-4.345C149.142,38.786,157.484,14.55,160.682,3.432z"/>
		</g>
		<g>
			<path d="M141.138,63.446c0,20.5-0.75,214.832-0.75,225.5c0,10.666-9.25,20.75-9.25,20.75c30.5,0,60.5-11.25,60.5-31.25
				s0.5-225.168,0.5-235.5c0-10.5,47.72-20.771,52-10.5c5,12,10.5,34.832,10.5,72c0,41-43.312,71.502-43.312,71.502
				c19.471,0,94.812-62.665,94.812-112.502c0-31-21-51-41-51C224.138,12.446,141.138,32.946,141.138,63.446z"/>
			<path d="M131.138,310.696c-0.396,0-0.756-0.231-0.915-0.598c-0.16-0.362-0.091-0.785,0.178-1.078
				c0.092-0.098,8.987-9.932,8.987-20.074c0-4.473,0.132-41.267,0.284-83.867c0.208-57.798,0.466-129.726,0.466-141.633
				c0-32.354,86.817-52,125-52c20.198,0,42,19.884,42,52c0,12.723-5.247,39.461-40.388,75.64
				c-20.625,21.23-44.973,37.862-55.425,37.862c-0.438,0-0.821-0.279-0.953-0.695c-0.134-0.416,0.021-0.869,0.377-1.12
				c0.43-0.302,42.889-30.688,42.889-70.688c0-40.546-6.53-62.271-10.424-71.612c-0.963-2.312-5.221-3.637-11.686-3.637
				c-18.169,0-38.394,8.195-38.394,13.749c0,4.322-0.089,42.817-0.189,87.394c-0.139,60.802-0.311,136.474-0.311,148.106
				c0,9.768-6.704,18.074-19.388,24.03C162.127,307.7,146.778,310.696,131.138,310.696z M265.138,13.446
				c-42.104,0-123,21.114-123,50c0,11.911-0.259,83.844-0.466,141.64c-0.152,42.603-0.284,79.395-0.284,83.86
				c0,8.437-5.434,16.356-8.093,19.73c28.192-0.514,57.343-11.071,57.343-30.23c0-11.638,0.172-87.31,0.312-148.11
				c0.103-44.573,0.188-83.067,0.188-87.39c0-5.246,9.122-9.21,14.56-11.104c8.218-2.864,18.115-4.646,25.834-4.646
				c7.525,0,12.203,1.685,13.529,4.864c3.95,9.48,10.577,31.491,10.577,72.385c0,34.561-30.696,61.976-40.658,69.958
				c12.307-3.255,34.646-20.562,50.337-36.715c25.309-26.053,39.821-53.11,39.821-74.243
				C305.138,32.562,284.375,13.446,265.138,13.446z"/>
		</g>
		<g>
			<path d="M69.138,94.696c0,20.5-0.875,173.582-0.875,184.25c0,10.666-9.282,20.75-9.282,20.75c30.5,0,50.971-11.25,50.971-31.25
				s0-174.168,0-184.5c0-8.205,10.845-20.5,10.845-20.5C90.293,63.446,69.138,76.867,69.138,94.696z"/>
			<path d="M58.981,300.696c-0.396,0-0.756-0.231-0.916-0.598s-0.089-0.787,0.182-1.079c0.09-0.099,9.019-9.932,9.019-20.073
				c0-4.474,0.153-34.01,0.332-68.211c0.241-46.394,0.543-104.133,0.543-116.039c0-18.687,22.146-32.25,52.655-32.25
				c0.394,0,0.75,0.23,0.911,0.591c0.162,0.355,0.1,0.775-0.161,1.07c-0.105,0.121-10.595,12.108-10.595,19.839v184.5
				C110.949,288.338,91.036,300.696,58.981,300.696z M118.634,64.469c-28.229,0.609-48.496,13.132-48.496,30.227
				c0,11.912-0.302,69.653-0.543,116.053c-0.179,34.195-0.332,63.729-0.332,68.197c0,8.437-5.451,16.356-8.12,19.73
				c29.551-0.532,47.809-12.013,47.809-30.23v-184.5C108.949,77.22,115.636,68.182,118.634,64.469z"/>
		</g>
	</g>
</g>
<g id="P_-_Rum" display="none">
	<g display="inline">
		<g>
			<path d="M157.917,353.719c0,0,0-316.625,0-326.125s5-19.5,5-9.5s0,321.6,0,328c0,6.399,5.75,10.5,5.75,10.5L157.917,353.719z"/>
			<path d="M168.667,357.594c-0.085,0-0.172-0.011-0.258-0.034l-10.75-2.875c-0.438-0.117-0.742-0.513-0.742-0.966V27.594
				c0-5.765,2.128-14.655,4.955-14.655c1.812,0,2.045,2.755,2.045,5.155v328c0,5.385,4.521,9.067,5.234,9.615
				c0.317,0.168,0.534,0.501,0.534,0.885c0,0.553-0.448,1-1,1C168.685,357.594,168.675,357.594,168.667,357.594z M158.917,352.951
				l6.302,1.685c-1.612-1.962-3.302-4.89-3.302-8.542v-328c0-1.504-0.118-2.344-0.228-2.799c-1.046,1.516-2.772,6.761-2.772,12.299
				V352.951z"/>
		</g>
		<g>
			<path d="M148.917,77.719c0,0,93.143-45.375,99.517-50.125c12.75-9.5,22.633-19.5,22.633-19.5s20.773,19.834,40.94,20
				c10.977,0-20.273,11.666-20.276,31.25c-0.001,9.334,0.232,78.029,0.232,102.25c0,11.951,9.992,20.5,9.992,20.5
				s-113.671,30.167-139.003,41c0,0-6.405-38.984-0.002-45.875c2.314-2.492,46.064,15.375,68.65,14.875
				c8.578-0.189,9.312-26.624,9.312-30.5c0-22.381,0-84.317,0-92.5c0-10.5-4.857-17.869-21-10c-23.453,11.434-71,31-71,31
				L148.917,77.719L148.917,77.719z"/>
			<path d="M162.953,224.094c-0.166,0-0.332-0.041-0.48-0.123c-0.271-0.148-0.456-0.411-0.507-0.715
				c-0.016-0.101-1.617-9.911-2.412-20.44c-1.084-14.363-0.188-23.207,2.665-26.274c0.465-0.5,1.19-0.561,1.697-0.561
				c2.632,0,9.025,1.91,17.878,4.556c15.287,4.562,36.349,10.854,49.786,10.561c6.806-0.15,8.336-21.895,8.336-29.5v-92.5
				c0-8.16-2.89-12.297-8.583-12.297c-2.938,0-6.629,1.075-10.979,3.196c-23.213,11.313-70.582,30.827-71.059,31.023
				c-0.309,0.126-0.659,0.092-0.938-0.094c-0.275-0.188-0.441-0.498-0.441-0.831V77.719c0-0.383,0.22-0.732,0.562-0.9
				c0.924-0.446,93.079-45.349,99.354-50.024c12.545-9.35,22.421-19.305,22.521-19.401c0.384-0.387,1.008-0.396,1.4-0.021
				c0.205,0.193,20.729,19.562,40.259,19.724c1.382,0,2.854,0.152,3.248,1.281c0.515,1.479-1.221,2.851-5.021,5.854
				c-6.551,5.178-17.513,13.842-17.515,25.115c0,3.615,0.034,16.136,0.077,31.528c0.068,24.896,0.155,55.881,0.155,70.722
				c0,11.359,9.546,19.658,9.644,19.74c0.282,0.242,0.407,0.619,0.324,0.979c-0.082,0.362-0.359,0.648-0.719,0.744
				c-1.139,0.301-113.893,30.271-138.866,40.953C163.22,224.067,163.086,224.094,162.953,224.094z M163.594,178
				c-4.668,5.399-1.646,32.203,0.146,43.682c25.383-10.362,122.081-36.312,136.235-40.095c-2.804-2.858-9.012-10.287-9.012-19.993
				c0-14.838-0.087-45.821-0.155-70.716c-0.043-15.396-0.077-27.918-0.077-31.534c0.002-12.242,11.439-21.283,18.274-26.685
				c1.629-1.288,3.438-2.723,4.104-3.507c-0.23-0.03-0.584-0.061-1.102-0.061c-10.666-0.088-21.426-5.607-28.575-10.222
				c-6.146-3.97-10.657-7.872-12.342-9.396c-2.465,2.421-11.293,10.896-22.062,18.918c-6.187,4.61-90.622,45.812-99.111,49.948
				l-0.001,10.255c7.995-3.308,48.64-20.204,69.562-30.404c9.931-4.841,16.803-4.442,20.175,0.935
				c1.502,2.395,2.266,5.749,2.266,9.967v92.5c0,1.277-0.117,31.275-10.291,31.5c-13.711,0.296-34.984-6.04-50.402-10.646
				c-8.031-2.396-14.967-4.469-17.307-4.469C163.753,177.98,163.651,177.99,163.594,178z"/>
		</g>
		<g>
			<path d="M55.449,182.594c15.823-7.316,45.365-5.776,71.5-5.672c16.962,0.07,30.75-35.328,0.25-35.328
				C75.949,141.594,55.449,162.094,55.449,182.594z"/>
			<path d="M55.449,183.594c-0.188,0-0.375-0.053-0.539-0.157c-0.288-0.184-0.461-0.502-0.461-0.843
				c0-11.361,6.071-21.667,17.102-29.021c12.738-8.489,31.981-12.979,55.648-12.979c6.387,0,11.304,1.502,14.61,4.464
				c2.901,2.598,4.438,6.247,4.438,10.551c0,10.044-8.883,22.313-19.248,22.313c-3.67-0.017-7.354-0.06-11.055-0.101
				c-4.569-0.053-9.297-0.104-13.9-0.104c-17.484,0-35.182,0.7-46.175,5.783C55.735,183.563,55.591,183.594,55.449,183.594z
				 M127.199,142.594c-23.271,0-42.133,4.373-54.539,12.645c-9.948,6.635-15.645,15.75-16.172,25.812
				c11.391-4.67,28.583-5.333,45.556-5.333c4.616,0,9.349,0.054,13.926,0.104c3.695,0.042,7.372,0.084,10.983,0.102
				c7.811,0,17.293-9.374,17.293-20.313c0-3.72-1.306-6.853-3.771-9.061C137.546,143.924,133.079,142.594,127.199,142.594z"/>
		</g>
		<g>
			<path d="M55.449,264.594c15.823-7.316,45.365-5.776,71.5-5.671c16.962,0.065,30.75-35.329,0.25-35.329
				C75.949,223.594,55.449,244.094,55.449,264.594z"/>
			<path d="M55.449,265.594c-0.188,0-0.375-0.053-0.539-0.157c-0.288-0.184-0.461-0.502-0.461-0.843
				c0-11.361,6.071-21.667,17.102-29.021c12.738-8.489,31.981-12.979,55.648-12.979c6.388,0,11.304,1.502,14.611,4.464
				c2.901,2.599,4.438,6.247,4.438,10.551c0,10.045-8.882,22.314-19.249,22.314c-3.669-0.018-7.351-0.06-11.049-0.102
				c-4.574-0.053-9.305-0.104-13.911-0.104c-17.481,0-35.177,0.7-46.17,5.783C55.735,265.563,55.591,265.594,55.449,265.594z
				 M127.199,224.594c-23.271,0-42.133,4.372-54.539,12.645c-9.948,6.635-15.645,15.749-16.172,25.812
				c11.391-4.67,28.58-5.333,45.551-5.333c4.619,0,9.354,0.054,13.935,0.104c3.694,0.042,7.371,0.084,10.98,0.102
				c7.811,0,17.294-9.374,17.294-20.314c0-3.719-1.306-6.853-3.771-9.061C137.546,225.924,133.079,224.594,127.199,224.594z"/>
		</g>
		<g>
			<path d="M95.949,70.094c0,20.5,1,244.678,1,255.346c0,20.654-21,30.654-21,30.654c20.5,0,31.039-6.118,46-6
				c15.789,0.124,26,6.5,46.5,6.5c0,0-20.5-12.5-20.5-31c0-20-1-255.835-1-266.167c0-20-9.5-51.333-50.5-51.333
				s-71.5,51.5-61.5,51.5S95.949,28.094,95.949,70.094z"/>
			<path d="M168.469,357.594c-0.008,0-0.014,0-0.021,0c-11.118,0-19.091-1.822-26.8-3.585c-6.43-1.47-12.504-2.858-19.708-2.915
				l-0.42-0.002c-6.67,0-12.568,1.271-18.813,2.619c-7.354,1.586-15.688,3.383-26.756,3.383c-0.469,0-0.872-0.323-0.977-0.779
				c-0.104-0.455,0.123-0.922,0.544-1.123c0.205-0.098,20.433-9.984,20.433-29.752c0-4.469-0.178-46.512-0.381-95.19
				c-0.276-66.048-0.62-148.244-0.62-160.155c0-14.023-5.756-20.84-17.594-20.84c-9.482,0-21.231,4.375-29.812,7.569
				c-5.654,2.104-10.122,3.771-12.598,3.771c-1.194,0-1.872-0.547-2.23-1.006c-0.451-0.58-0.682-1.376-0.682-2.367
				c0-5.437,6.969-17.8,18.63-29.076c8.13-7.859,24.89-21.05,45.782-21.05c37.972,0,51.5,27.034,51.5,52.333
				c0,4.318,0.176,48.188,0.379,98.986c0.275,69.298,0.621,155.542,0.621,167.181c0,17.08,18.387,29.11,19.921,30.083
				c0.354,0.155,0.601,0.507,0.601,0.917C169.469,357.146,169.021,357.594,168.469,357.594z M121.52,349.092l0.438,0.002
				c7.421,0.059,13.599,1.471,20.139,2.966c6.808,1.559,13.823,3.16,23.042,3.479c-5.729-4.227-18.188-15.115-18.188-29.943
				c0-11.635-0.346-97.877-0.621-167.173c-0.203-50.799-0.379-94.671-0.379-98.994c0-7.184-1.259-20.97-9.685-32.579
				C127.714,15.068,114.319,9.095,96.45,9.095c-35.123,0-62.413,38.386-62.413,48.126c0,0.521,0.092,0.923,0.258,1.137
				c0.052,0.065,0.186,0.237,0.652,0.237c2.114,0,6.648-1.688,11.899-3.644c8.721-3.248,20.665-7.696,30.509-7.696
				c13,0,19.594,7.685,19.594,22.84c0,11.907,0.344,94.1,0.618,160.144c0.204,48.688,0.382,90.729,0.382,95.202
				c0,15.836-12.096,25.65-18.173,29.582c8.938-0.339,15.821-1.822,22.508-3.266C108.636,350.386,114.637,349.092,121.52,349.092z"
				/>
		</g>
	</g>
</g>
<g id="B_-_Vodka" display="none">
	<g display="inline">
		<g>
			<path d="M245.286,161.345l21-20.25l0.25-122.75h-41.25l-184.375,0.5l-0.5,327.5h225.625h40.939V201.876l-40.689-40.531H245.286z
				 M225.536,283.876l-123.875,0.25l-0.25-205l82.875-0.25l20.25,0.5l-0.25,40.481l-20,21.484h-62.309v61h103.31l20,20.766
				l0.5,60.261L225.536,283.876z"/>
			<path d="M306.977,347.345H40.411c-0.268,0-0.521-0.105-0.708-0.293c-0.188-0.188-0.293-0.443-0.292-0.709l0.5-327.5
				c0.001-0.551,0.445-0.997,0.997-0.999l184.375-0.5h41.253c0.267,0,0.521,0.104,0.708,0.293c0.188,0.188,0.293,0.443,0.292,0.708
				l-0.25,122.75c-0.001,0.271-0.111,0.53-0.308,0.718l-19.217,18.53h18.521c0.265,0,0.52,0.104,0.705,0.292l40.69,40.532
				c0.188,0.188,0.294,0.439,0.294,0.708v144.469C307.977,346.897,307.53,347.345,306.977,347.345z M41.413,345.345h264.563V202.291
				l-40.104-39.946h-20.587c-0.408,0-0.773-0.248-0.93-0.625c-0.15-0.378-0.061-0.812,0.232-1.094l20.695-19.956l0.246-121.324
				H225.28L41.91,19.842L41.413,345.345z M101.661,285.126c-0.267,0-0.521-0.104-0.706-0.292c-0.188-0.188-0.293-0.441-0.294-0.707
				l-0.25-205c0-0.552,0.443-1,0.997-1.001l82.875-0.25c0.003-0.001,0.019,0,0.025,0l20.25,0.5c0.545,0.013,0.979,0.46,0.978,1.006
				l-0.25,40.484c-0.002,0.25-0.1,0.489-0.27,0.675l-20,21.481c-0.188,0.204-0.455,0.319-0.73,0.319h-61.309v59h102.31
				c0.271,0,0.53,0.11,0.721,0.307l20,20.769c0.178,0.184,0.277,0.43,0.279,0.685l0.5,60.258c0.005,0.546-0.432,0.995-0.977,1.012
				l-20.251,0.509l-123.896,0.25C101.663,285.126,101.662,285.126,101.661,285.126z M102.413,80.123l0.248,203.001l122.874-0.248
				l19.243-0.483l-0.487-58.876l-19.43-20.173H121.979c-0.552,0-1-0.447-1-1v-61c0-0.552,0.448-1,1-1h61.871l19.438-20.88
				l0.24-39.112l-19.254-0.476L102.413,80.123z"/>
		</g>
		<g>
			<path d="M245.286,161.345l21-20.25l0.25-122.75h-41.25l-184.375,0.5l-0.5,327.5h225.625h40.939V201.876l-40.689-40.531H245.286z
				 M225.536,283.876l-123.875,0.25l-0.25-205l82.875-0.25l20.25,0.5l-0.25,40.481l-20,21.484h-62.309v61h103.31l20,20.766
				l0.5,60.261L225.536,283.876z"/>
			<path d="M306.977,347.345H40.411c-0.268,0-0.521-0.105-0.708-0.293c-0.188-0.188-0.293-0.443-0.292-0.709l0.5-327.5
				c0.001-0.551,0.445-0.997,0.997-0.999l184.375-0.5h41.253c0.267,0,0.521,0.104,0.708,0.293c0.188,0.188,0.293,0.443,0.292,0.708
				l-0.25,122.75c-0.001,0.271-0.111,0.53-0.308,0.718l-19.217,18.53h18.521c0.265,0,0.52,0.104,0.705,0.292l40.69,40.532
				c0.188,0.188,0.294,0.439,0.294,0.708v144.469C307.977,346.897,307.53,347.345,306.977,347.345z M41.413,345.345h264.563V202.291
				l-40.104-39.946h-20.587c-0.408,0-0.773-0.248-0.93-0.625c-0.15-0.378-0.061-0.812,0.232-1.094l20.695-19.956l0.246-121.324
				H225.28L41.91,19.842L41.413,345.345z M101.661,285.126c-0.267,0-0.521-0.104-0.706-0.292c-0.188-0.188-0.293-0.441-0.294-0.707
				l-0.25-205c0-0.552,0.443-1,0.997-1.001l82.875-0.25c0.003-0.001,0.019,0,0.025,0l20.25,0.5c0.545,0.013,0.979,0.46,0.978,1.006
				l-0.25,40.484c-0.002,0.25-0.1,0.489-0.27,0.675l-20,21.481c-0.188,0.204-0.455,0.319-0.73,0.319h-61.309v59h102.31
				c0.271,0,0.53,0.11,0.721,0.307l20,20.769c0.178,0.184,0.277,0.43,0.279,0.685l0.5,60.258c0.005,0.546-0.432,0.995-0.977,1.012
				l-20.251,0.509l-123.896,0.25C101.663,285.126,101.662,285.126,101.661,285.126z M102.413,80.123l0.248,203.001l122.874-0.248
				l19.243-0.483l-0.487-58.876l-19.43-20.173H121.979c-0.552,0-1-0.447-1-1v-61c0-0.552,0.448-1,1-1h61.871l19.438-20.88
				l0.24-39.112l-19.254-0.476L102.413,80.123z"/>
		</g>
	</g>
</g>
<g id="P_-_Vodka" display="none">
	<g display="inline">
		<g>
			<polygon points="296.568,161.112 296.818,18.682 255.568,18.217 51.068,18.844 50.568,346.471 111.818,346.471 111.568,79.612 
				214.568,79.182 234.818,78.656 234.568,140.094 214.568,161.471 110.948,161.471 110.948,222.471 234.568,222.471 			"/>
			<path d="M111.838,347.471c-0.006,0-0.013,0-0.021,0h-61.25c-0.266,0-0.521-0.105-0.708-0.293
				c-0.188-0.188-0.293-0.443-0.292-0.709l0.5-327.626c0.001-0.55,0.446-0.997,0.997-0.999l204.5-0.627l41.267,0.465
				c0.548,0.006,0.987,0.453,0.986,1.002l-0.25,142.43c0,0.269-0.105,0.521-0.297,0.709l-62,61.359
				c-0.188,0.188-0.438,0.289-0.703,0.289H112.702l0.113,122.799c0.015,0.065,0.021,0.133,0.021,0.201
				C112.838,347.023,112.39,347.471,111.838,347.471z M51.569,345.471h59.248l-0.112-122.03c-0.435-0.107-0.754-0.502-0.754-0.97
				v-61c0-0.446,0.292-0.824,0.693-0.953l-0.076-80.905c0-0.551,0.445-0.999,0.996-1.001l103-0.43l20.229-0.525
				c0.27-0.016,0.532,0.098,0.727,0.285c0.192,0.189,0.302,0.448,0.301,0.722l-0.25,61.438c-0.001,0.252-0.098,0.495-0.271,0.679
				l-20,21.377c-0.188,0.202-0.453,0.317-0.729,0.317H112.645l0.057,59h121.454l61.412-60.777l0.247-141.021l-40.26-0.454
				l-203.49,0.624L51.569,345.471z M112.643,160.471h101.49l19.437-20.773l0.244-60.015l-19.22,0.499l-102.025,0.426
				L112.643,160.471z"/>
		</g>
		<g>
			<polygon points="296.568,161.112 296.818,18.682 255.568,18.217 51.068,18.844 50.568,346.471 111.818,346.471 111.568,79.612 
				214.568,79.182 234.818,78.656 234.568,140.094 214.568,161.471 110.948,161.471 110.948,222.471 234.568,222.471 			"/>
			<path d="M111.838,347.471c-0.006,0-0.013,0-0.021,0h-61.25c-0.266,0-0.521-0.105-0.708-0.293
				c-0.188-0.188-0.293-0.443-0.292-0.709l0.5-327.626c0.001-0.55,0.446-0.997,0.997-0.999l204.5-0.627l41.267,0.465
				c0.548,0.006,0.987,0.453,0.986,1.002l-0.25,142.43c0,0.269-0.105,0.521-0.297,0.709l-62,61.359
				c-0.188,0.188-0.438,0.289-0.703,0.289H112.702l0.113,122.799c0.015,0.065,0.021,0.133,0.021,0.201
				C112.838,347.023,112.39,347.471,111.838,347.471z M51.569,345.471h59.248l-0.112-122.03c-0.435-0.107-0.754-0.502-0.754-0.97
				v-61c0-0.446,0.292-0.824,0.693-0.953l-0.076-80.905c0-0.551,0.445-0.999,0.996-1.001l103-0.43l20.229-0.525
				c0.27-0.016,0.532,0.098,0.727,0.285c0.192,0.189,0.302,0.448,0.301,0.722l-0.25,61.438c-0.001,0.252-0.098,0.495-0.271,0.679
				l-20,21.377c-0.188,0.202-0.453,0.317-0.729,0.317H112.645l0.057,59h121.454l61.412-60.777l0.247-141.021l-40.26-0.454
				l-203.49,0.624L51.569,345.471z M112.643,160.471h101.49l19.437-20.773l0.244-60.015l-19.22,0.499l-102.025,0.426
				L112.643,160.471z"/>
		</g>
	</g>
</g>
<g id="P_-_Ghiaccio">
	<g>
		<g>
			<path stroke="#000000" stroke-width="10" stroke-miterlimit="10" d="M215.191,184.344h-21.995c-1.104,0-2-0.896-2-2s0.896-2,2-2
				h21.994c39.324,0,80-30.004,80-80.214c0-24.438-9.333-44.718-26.987-58.649c-17.526-13.828-42.771-21.137-73.013-21.137H50.196
				c-1.104,0-2-0.896-2-2s0.896-2,2-2H195.19c64.148,0,104,32.104,104,83.786c0,24.154-9.329,46.062-26.27,61.688
				C257.403,176.133,236.361,184.344,215.191,184.344z"/>
		</g>
		<g>
			<path stroke="#000000" stroke-width="10" stroke-miterlimit="10" d="M194.065,184.25c-0.002,0-0.004,0-0.006,0l-101.958-0.291
				c-1.104-0.003-1.997-0.901-1.994-2.006c0.002-1.104,0.912-2.033,2.006-1.994l101.958,0.291c1.104,0.003,1.997,0.898,1.994,2.006
				C196.062,183.358,195.166,184.25,194.065,184.25z"/>
		</g>
		<g>
			<path stroke="#000000" stroke-width="10" stroke-miterlimit="10" d="M132.196,348.344h-82c-1.104,0-2-0.896-2-2s0.896-2,2-2h82
				c1.104,0,2,0.896,2,2S133.301,348.344,132.196,348.344z"/>
		</g>
		<g>
			<path stroke="#000000" stroke-width="10" stroke-miterlimit="10" d="M91.196,348.344c-1.104,0-2-0.896-2-2v-328
				c0-1.104,0.896-2,2-2s2,0.896,2,2v328C93.196,347.448,92.301,348.344,91.196,348.344z"/>
		</g>
	</g>
</g>
<g id="B_-_Ghiaccio">
	<g>
		<g>
			<path stroke="#000000" stroke-width="10" stroke-miterlimit="10" d="M194.443,161.852c-1.104,0-2-0.896-2-2s0.896-2,2-2
				c19.818,0,39.905-7.124,55.107-19.545c16.052-13.112,24.891-30.584,24.891-49.197c0-19.677-9.304-36.664-26.903-49.126
				c-18.148-12.849-43.427-19.64-73.097-19.64H29.946c-1.104,0-2-0.896-2-2s0.896-2,2-2H174.44c30.503,0,56.577,7.046,75.405,20.375
				C268.284,49.774,278.44,68.38,278.44,89.11c0,19.836-9.359,38.408-26.356,52.295
				C236.176,154.399,215.167,161.852,194.443,161.852z"/>
		</g>
		<g>
			<path stroke="#000000" stroke-width="10" stroke-miterlimit="10" d="M194.441,348.344H29.946c-1.104,0-2-0.896-2-2s0.896-2,2-2
				H194.44c38.29,0,69.783-9.241,91.074-26.725c19.577-16.077,29.926-38.3,29.926-64.262c0-53.015-41.984-91.492-99.833-91.492
				l-144-0.179c-1.104-0.001-1.999-0.896-1.998-2.002c0.001-1.104,0.896-1.998,2-1.998c0.001,0,0.001,0,0.002,0l143.999,0.179
				c30.213,0,56.313,9.679,75.481,27.987c18.278,17.462,28.349,41.438,28.349,67.505c0,27.199-10.854,50.488-31.387,67.353
				C266.038,338.788,233.668,348.344,194.441,348.344z"/>
		</g>
		<g>
			<path stroke="#000000" stroke-width="10" stroke-miterlimit="10" d="M70.946,348.344c-1.104,0-2-0.896-2-2v-328
				c0-1.104,0.896-2,2-2s2,0.896,2,2v328C72.946,347.448,72.051,348.344,70.946,348.344z"/>
		</g>
	</g>
</g>
</svg>
